date,hour,pm2.5
2010/1/6,0,51
2010/1/6,1,109
2010/1/6,2,28
2010/1/6,3,30
2010/1/6,4,18
2010/1/6,5,19
2010/1/6,6,21
2010/1/6,7,11
2010/1/6,8,10
2010/1/6,9,15
2010/1/6,10,13
2010/1/6,11,20
2010/1/6,12,20
2010/1/6,13,54
2010/1/6,14,56
2010/1/6,15,57
2010/1/6,16,57
2010/1/6,17,58
2010/1/6,18,59
2010/1/6,19,65
2010/1/6,20,69
2010/1/6,21,59
2010/1/6,22,58
2010/1/6,23,47
2010/1/13,0,37
2010/1/13,1,31
2010/1/13,2,29
2010/1/13,3,19
2010/1/13,4,21
2010/1/13,5,17
2010/1/13,6,18
2010/1/13,7,18
2010/1/13,8,19
2010/1/13,9,21
2010/1/13,10,22
2010/1/13,11,22
2010/1/13,12,22
2010/1/13,13,21
2010/1/13,14,22
2010/1/13,15,22
2010/1/13,16,22
2010/1/13,17,101
2010/1/13,18,108
2010/1/13,19,112
2010/1/13,20,130
2010/1/13,21,148
2010/1/13,22,148
2010/1/13,23,159
2010/1/20,0,258
2010/1/20,1,247
2010/1/20,2,240
2010/1/20,3,196
2010/1/20,4,174
2010/1/20,5,172
2010/1/20,6,144
2010/1/20,7,80
2010/1/20,8,67
2010/1/20,9,61
2010/1/20,10,69
2010/1/20,11,39
2010/1/20,12,39
2010/1/20,13,61
2010/1/20,14,88
2010/1/20,15,74
2010/1/20,16,82
2010/1/20,17,52
2010/1/20,18,39
2010/1/20,19,44
2010/1/20,20,47
2010/1/20,21,42
2010/1/20,22,29
2010/1/20,23,23
2010/1/27,0,206
2010/1/27,1,158
2010/1/27,2,171
2010/1/27,3,223
2010/1/27,4,173
2010/1/27,5,160
2010/1/27,6,185
2010/1/27,7,173
2010/1/27,8,196
2010/1/27,9,163
2010/1/27,10,160
2010/1/27,11,204
2010/1/27,12,198
2010/1/27,13,170
2010/1/27,14,74
2010/1/27,15,67
2010/1/27,16,69
2010/1/27,17,58
2010/1/27,18,51
2010/1/27,19,53
2010/1/27,20,46
2010/1/27,21,38
2010/1/27,22,36
2010/1/27,23,30
2010/2/3,0,81
2010/2/3,1,40
2010/2/3,2,92
2010/2/3,3,84
2010/2/3,4,85
2010/2/3,5,94
2010/2/3,6,85
2010/2/3,7,73
2010/2/3,8,79
2010/2/3,9,75
2010/2/3,10,31
2010/2/3,11,36
2010/2/3,12,27
2010/2/3,13,27
2010/2/3,14,31
2010/2/3,15,29
2010/2/3,16,26
2010/2/3,17,24
2010/2/3,18,24
2010/2/3,19,29
2010/2/3,20,81
2010/2/3,21,93
2010/2/3,22,61
2010/2/3,23,89
2010/2/10,0,27
2010/2/10,1,25
2010/2/10,2,10
2010/2/10,3,8
2010/2/10,4,10
2010/2/10,5,10
2010/2/10,6,8
2010/2/10,7,9
2010/2/10,8,11
2010/2/10,9,13
2010/2/10,10,14
2010/2/10,11,12
2010/2/10,12,11
2010/2/10,13,36
2010/2/10,14,33
2010/2/10,15,24
2010/2/10,16,17
2010/2/10,17,13
2010/2/10,18,17
2010/2/10,19,29
2010/2/10,20,32
2010/2/10,21,29
2010/2/10,22,30
2010/2/10,23,25
2010/2/17,0,158
2010/2/17,1,115
2010/2/17,2,176
2010/2/17,3,134
2010/2/17,4,106
2010/2/17,5,125
2010/2/17,6,34
2010/2/17,7,35
2010/2/17,8,22
2010/2/17,9,16
2010/2/17,10,16
2010/2/17,11,15
2010/2/17,12,15
2010/2/17,13,17
2010/2/17,14,17
2010/2/17,15,17
2010/2/17,16,19
2010/2/17,17,21
2010/2/17,18,57
2010/2/17,19,64
2010/2/17,20,78
2010/2/17,21,66
2010/2/17,22,59
2010/2/17,23,79
2010/2/24,0,292
2010/2/24,1,264
2010/2/24,2,248
2010/2/24,3,223
2010/2/24,4,248
2010/2/24,5,291
2010/2/24,6,287
2010/2/24,7,270
2010/2/24,8,254
2010/2/24,9,254
2010/2/24,10,230
2010/2/24,11,206
2010/2/24,12,194
2010/2/24,13,108
2010/2/24,14,117
2010/2/24,15,228
2010/2/24,16,226
2010/2/24,17,217
2010/2/24,18,203
2010/2/24,19,248
2010/2/24,20,262
2010/2/24,21,260
2010/2/24,22,255
2010/2/24,23,292
2010/3/3,0,162
2010/3/3,1,173
2010/3/3,2,159
2010/3/3,3,119
2010/3/3,4,110
2010/3/3,5,103
2010/3/3,6,100
2010/3/3,7,99
2010/3/3,8,125
2010/3/3,9,124
2010/3/3,10,138
2010/3/3,11,152
2010/3/3,12,165
2010/3/3,13,140
2010/3/3,14,140
2010/3/3,15,131
2010/3/3,16,132
2010/3/3,17,110
2010/3/3,18,168
2010/3/3,19,183
2010/3/3,20,181
2010/3/3,21,176
2010/3/3,22,187
2010/3/3,23,176
2010/3/10,0,117
2010/3/10,1,160
2010/3/10,2,160
2010/3/10,3,160
2010/3/10,4,150
2010/3/10,5,102
2010/3/10,6,167
2010/3/10,7,135
2010/3/10,8,73
2010/3/10,9,52
2010/3/10,10,47
2010/3/10,11,37
2010/3/10,12,44
2010/3/10,13,42
2010/3/10,14,46
2010/3/10,15,47
2010/3/10,16,59
2010/3/10,17,66
2010/3/10,18,66
2010/3/10,19,68
2010/3/10,20,75
2010/3/10,21,74
2010/3/10,22,71
2010/3/10,23,72
2010/3/17,0,85
2010/3/17,1,122
2010/3/17,2,104
2010/3/17,3,51
2010/3/17,4,32
2010/3/17,5,35
2010/3/17,6,26
2010/3/17,7,15
2010/3/17,8,13
2010/3/17,9,17
2010/3/17,10,20
2010/3/17,11,19
2010/3/17,12,27
2010/3/17,13,18
2010/3/17,14,39
2010/3/17,15,20
2010/3/17,16,40
2010/3/17,17,39
2010/3/17,18,72
2010/3/17,19,87
2010/3/17,20,100
2010/3/17,21,112
2010/3/17,22,140
2010/3/17,23,101
2010/3/24,0,73
2010/3/24,1,72
2010/3/24,2,69
2010/3/24,3,98
2010/3/24,4,118
2010/3/24,5,116
2010/3/24,6,174
2010/3/24,7,194
2010/3/24,8,105
2010/3/24,9,78
2010/3/24,10,47
2010/3/24,11,25
2010/3/24,12,16
2010/3/24,13,7
2010/3/24,14,27
2010/3/24,15,110
2010/3/24,16,98
2010/3/24,17,125
2010/3/24,18,147
2010/3/24,19,126
2010/3/24,20,212
2010/3/24,21,180
2010/3/24,22,190
2010/3/24,23,170
2010/3/31,7,160
2010/3/31,8,140
2010/3/31,17,65
2010/3/31,18,61
2010/3/31,19,57
2010/3/31,20,51
2010/3/31,21,51
2010/3/31,22,34
2010/3/31,23,34
2010/4/7,0,75
2010/4/7,1,38
2010/4/7,2,31
2010/4/7,3,35
2010/4/7,4,58
2010/4/7,5,53
2010/4/7,6,49
2010/4/7,7,79
2010/4/7,8,73
2010/4/7,9,125
2010/4/7,10,118
2010/4/7,11,100
2010/4/7,12,116
2010/4/7,13,100
2010/4/7,14,77
2010/4/7,15,79
2010/4/7,16,76
2010/4/7,17,64
2010/4/7,18,61
2010/4/7,19,60
2010/4/7,20,71
2010/4/7,21,86
2010/4/7,22,85
2010/4/7,23,95
2010/4/14,0,62
2010/4/14,1,59
2010/4/14,2,62
2010/4/14,3,61
2010/4/14,4,66
2010/4/14,5,59
2010/4/14,6,64
2010/4/14,7,87
2010/4/14,8,43
2010/4/14,9,49
2010/4/14,10,29
2010/4/14,11,34
2010/4/14,12,35
2010/4/14,13,38
2010/4/14,14,22
2010/4/14,15,34
2010/4/14,16,25
2010/4/14,17,74
2010/4/14,18,90
2010/4/14,19,105
2010/4/14,20,90
2010/4/14,21,93
2010/4/14,22,90
2010/4/14,23,77
2010/4/21,0,61
2010/4/21,1,65
2010/4/21,2,68
2010/4/21,3,66
2010/4/21,4,67
2010/4/21,5,54
2010/4/21,6,64
2010/4/21,7,50
2010/4/21,8,83
2010/4/21,9,70
2010/4/21,10,77
2010/4/21,11,43
2010/4/21,12,60
2010/4/21,13,50
2010/4/21,14,47
2010/4/21,15,104
2010/4/21,16,99
2010/4/21,17,88
2010/4/21,18,59
2010/4/21,19,83
2010/4/21,20,62
2010/4/21,21,71
2010/4/21,22,70
2010/4/21,23,42
2010/4/28,0,27
2010/4/28,1,38
2010/4/28,2,58
2010/4/28,3,35
2010/4/28,4,25
2010/4/28,5,23
2010/4/28,6,20
2010/4/28,7,20
2010/4/28,8,18
2010/4/28,9,23
2010/4/28,10,28
2010/4/28,11,31
2010/4/28,12,31
2010/4/28,13,32
2010/4/28,14,33
2010/4/28,15,33
2010/4/28,16,32
2010/4/28,17,31
2010/4/28,18,30
2010/4/28,19,27
2010/4/28,20,39
2010/4/28,21,37
2010/4/28,22,40
2010/4/28,23,44
2010/5/5,0,134
2010/5/5,1,111
2010/5/5,2,109
2010/5/5,3,123
2010/5/5,4,125
2010/5/5,5,129
2010/5/5,6,115
2010/5/5,7,130
2010/5/5,8,139
2010/5/5,9,144
2010/5/5,10,173
2010/5/5,11,180
2010/5/5,12,164
2010/5/5,13,52
2010/5/5,14,47
2010/5/5,15,37
2010/5/5,16,34
2010/5/5,17,32
2010/5/5,18,33
2010/5/5,19,42
2010/5/5,20,58
2010/5/5,21,58
2010/5/5,22,53
2010/5/5,23,58
2010/5/12,0,90
2010/5/12,1,95
2010/5/12,2,96
2010/5/12,3,101
2010/5/12,4,98
2010/5/12,5,97
2010/5/12,6,107
2010/5/12,7,77
2010/5/12,8,99
2010/5/12,9,107
2010/5/12,10,110
2010/5/12,11,93
2010/5/12,12,109
2010/5/12,13,86
2010/5/12,14,105
2010/5/12,15,97
2010/5/12,16,89
2010/5/12,17,83
2010/5/12,18,79
2010/5/12,19,78
2010/5/12,20,83
2010/5/12,21,91
2010/5/12,22,90
2010/5/12,23,96
2010/5/19,0,105
2010/5/19,1,109
2010/5/19,2,105
2010/5/19,3,112
2010/5/19,4,112
2010/5/19,5,115
2010/5/19,6,132
2010/5/19,7,87
2010/5/19,8,66
2010/5/19,9,78
2010/5/19,10,68
2010/5/19,11,39
2010/5/19,12,51
2010/5/19,13,37
2010/5/19,14,36
2010/5/19,15,38
2010/5/19,16,31
2010/5/19,17,30
2010/5/19,18,29
2010/5/19,19,28
2010/5/19,20,35
2010/5/19,21,38
2010/5/19,22,21
2010/5/19,23,34
2010/5/26,0,98
2010/5/26,1,81
2010/5/26,2,103
2010/5/26,3,78
2010/5/26,4,79
2010/5/26,5,114
2010/5/26,6,103
2010/5/26,7,112
2010/5/26,8,118
2010/5/26,9,115
2010/5/26,10,105
2010/5/26,11,95
2010/5/26,12,94
2010/5/26,13,94
2010/5/26,14,93
2010/5/26,15,83
2010/5/26,16,81
2010/5/26,17,76
2010/5/26,18,78
2010/5/26,19,86
2010/5/26,20,75
2010/5/26,21,85
2010/5/26,22,87
2010/5/26,23,101
2010/6/2,17,80
2010/6/2,18,80
2010/6/2,19,80
2010/6/2,20,98
2010/6/2,21,104
2010/6/2,22,104
2010/6/2,23,101
2010/6/9,17,58
2010/6/9,18,63
2010/6/9,19,76
2010/6/9,20,73
2010/6/9,21,74
2010/6/9,22,76
2010/6/9,23,63
2010/6/16,0,145
2010/6/16,1,140
2010/6/16,2,148
2010/6/16,3,160
2010/6/16,4,156
2010/6/16,5,132
2010/6/16,6,117
2010/6/16,7,137
2010/6/16,8,139
2010/6/16,9,129
2010/6/16,10,129
2010/6/16,11,134
2010/6/16,12,103
2010/6/16,13,153
2010/6/16,14,166
2010/6/16,15,170
2010/6/16,16,150
2010/6/16,17,172
2010/6/16,18,64
2010/6/16,19,65
2010/6/16,20,79
2010/6/16,21,87
2010/6/16,22,98
2010/6/16,23,90
2010/6/23,10,45
2010/6/23,11,44
2010/6/23,12,53
2010/6/23,13,50
2010/6/23,14,64
2010/6/23,15,62
2010/6/23,16,63
2010/6/23,17,63
2010/6/23,18,63
2010/6/23,19,69
2010/6/23,20,53
2010/6/23,21,57
2010/6/23,22,61
2010/6/23,23,54
2010/6/30,0,150
2010/6/30,1,149
2010/6/30,2,144
2010/6/30,3,161
2010/6/30,4,136
2010/6/30,5,150
2010/6/30,6,153
2010/6/30,7,149
2010/6/30,8,146
2010/6/30,9,150
2010/6/30,10,151
2010/6/30,11,140
2010/6/30,12,136
2010/6/30,13,126
2010/6/30,14,144
2010/6/30,15,148
2010/6/30,16,132
2010/6/30,17,148
2010/6/30,18,145
2010/6/30,19,145
2010/6/30,20,151
2010/6/30,21,149
2010/6/30,22,148
2010/6/30,23,134
2010/7/7,0,61
2010/7/7,1,59
2010/7/7,2,36
2010/7/7,3,35
2010/7/7,4,62
2010/7/7,5,56
2010/7/7,6,49
2010/7/7,7,46
2010/7/7,8,62
2010/7/7,9,65
2010/7/7,10,66
2010/7/7,11,62
2010/7/7,12,60
2010/7/7,13,60
2010/7/7,14,39
2010/7/7,15,45
2010/7/7,16,33
2010/7/7,17,43
2010/7/7,18,53
2010/7/7,19,53
2010/7/7,20,77
2010/7/7,21,59
2010/7/7,22,59
2010/7/7,23,62
2010/7/14,0,136
2010/7/14,1,112
2010/7/14,2,111
2010/7/14,3,133
2010/7/14,4,134
2010/7/14,5,135
2010/7/14,6,152
2010/7/14,7,139
2010/7/14,8,135
2010/7/14,9,130
2010/7/14,10,130
2010/7/14,11,121
2010/7/14,12,107
2010/7/14,13,129
2010/7/14,14,111
2010/7/14,15,108
2010/7/14,16,103
2010/7/14,17,96
2010/7/14,18,98
2010/7/14,19,113
2010/7/14,20,121
2010/7/14,21,121
2010/7/14,22,122
2010/7/14,23,123
2010/7/21,0,120
2010/7/21,1,98
2010/7/21,2,98
2010/7/21,3,98
2010/7/21,4,97
2010/7/21,5,93
2010/7/21,6,92
2010/7/21,7,107
2010/7/21,8,116
2010/7/21,9,95
2010/7/21,10,106
2010/7/21,11,95
2010/7/21,12,96
2010/7/21,13,84
2010/7/21,14,86
2010/7/21,15,105
2010/7/21,16,104
2010/7/21,17,101
2010/7/21,18,102
2010/7/21,19,106
2010/7/21,20,103
2010/7/21,21,111
2010/7/21,22,109
2010/7/21,23,111
2010/7/28,0,153
2010/7/28,1,163
2010/7/28,2,146
2010/7/28,3,148
2010/7/28,4,151
2010/7/28,5,175
2010/7/28,6,176
2010/7/28,7,178
2010/7/28,8,175
2010/7/28,9,179
2010/7/28,10,141
2010/7/28,11,137
2010/7/28,12,107
2010/7/28,13,93
2010/7/28,14,100
2010/7/28,15,99
2010/7/28,16,102
2010/7/28,17,112
2010/7/28,18,112
2010/7/28,19,109
2010/7/28,20,106
2010/7/28,21,106
2010/7/28,22,131
2010/7/28,23,132
2010/8/4,0,102
2010/8/4,1,101
2010/8/4,2,84
2010/8/4,3,107
2010/8/4,4,100
2010/8/4,5,114
2010/8/4,6,104
2010/8/4,7,109
2010/8/4,8,104
2010/8/4,9,113
2010/8/4,10,105
2010/8/4,11,91
2010/8/4,12,73
2010/8/4,13,54
2010/8/4,14,47
2010/8/4,15,44
2010/8/4,16,37
2010/8/4,17,44
2010/8/4,18,39
2010/8/4,19,37
2010/8/4,20,33
2010/8/4,21,33
2010/8/4,22,31
2010/8/4,23,79
2010/8/11,0,113
2010/8/11,1,112
2010/8/11,2,112
2010/8/11,3,114
2010/8/11,4,110
2010/8/11,5,115
2010/8/11,6,114
2010/8/11,7,121
2010/8/11,8,128
2010/8/11,9,128
2010/8/11,10,128
2010/8/11,11,129
2010/8/11,12,128
2010/8/11,13,123
2010/8/11,14,135
2010/8/11,15,128
2010/8/11,16,100
2010/8/11,17,105
2010/8/11,18,104
2010/8/11,19,104
2010/8/11,20,92
2010/8/11,21,93
2010/8/11,22,94
2010/8/11,23,88
2010/8/18,0,141
2010/8/18,1,139
2010/8/18,2,140
2010/8/18,3,142
2010/8/18,4,145
2010/8/18,5,147
2010/8/18,6,147
2010/8/18,7,192
2010/8/18,8,196
2010/8/18,9,190
2010/8/18,10,190
2010/8/18,11,134
2010/8/18,12,134
2010/8/18,13,134
2010/8/18,14,112
2010/8/18,15,147
2010/8/18,16,151
2010/8/18,17,127
2010/8/18,18,126
2010/8/18,19,119
2010/8/18,20,71
2010/8/18,21,45
2010/8/18,22,33
2010/8/18,23,31
2010/8/25,0,85
2010/8/25,1,83
2010/8/25,2,84
2010/8/25,3,91
2010/8/25,4,86
2010/8/25,5,109
2010/8/25,6,107
2010/8/25,7,98
2010/8/25,8,81
2010/8/25,9,96
2010/8/25,10,81
2010/8/25,11,114
2010/8/25,12,86
2010/8/25,13,82
2010/8/25,14,100
2010/8/25,15,81
2010/8/25,16,75
2010/8/25,17,66
2010/8/25,18,71
2010/8/25,19,81
2010/8/25,20,106
2010/8/25,21,108
2010/8/25,22,108
2010/8/25,23,90
2010/9/1,0,105
2010/9/1,1,123
2010/9/1,2,154
2010/9/1,3,121
2010/9/1,4,71
2010/9/1,5,94
2010/9/1,6,104
2010/9/1,7,89
2010/9/1,8,98
2010/9/1,9,99
2010/9/1,10,86
2010/9/1,11,71
2010/9/1,12,63
2010/9/1,13,59
2010/9/1,14,53
2010/9/1,15,57
2010/9/1,16,50
2010/9/1,17,56
2010/9/1,18,43
2010/9/1,19,49
2010/9/1,20,109
2010/9/1,21,80
2010/9/1,22,94
2010/9/1,23,93
2010/9/8,0,98
2010/9/8,1,125
2010/9/8,2,114
2010/9/8,3,105
2010/9/8,4,101
2010/9/8,5,98
2010/9/8,6,94
2010/9/8,7,94
2010/9/8,8,95
2010/9/8,9,107
2010/9/8,10,93
2010/9/8,11,65
2010/9/8,12,47
2010/9/8,13,53
2010/9/8,14,73
2010/9/8,15,76
2010/9/8,16,70
2010/9/8,17,68
2010/9/8,18,79
2010/9/8,19,95
2010/9/8,20,99
2010/9/8,21,96
2010/9/8,22,77
2010/9/8,23,96
2010/9/15,0,111
2010/9/15,1,110
2010/9/15,2,107
2010/9/15,3,103
2010/9/15,4,102
2010/9/15,5,100
2010/9/15,6,100
2010/9/15,7,97
2010/9/15,8,111
2010/9/15,9,128
2010/9/15,10,117
2010/9/15,11,116
2010/9/15,12,104
2010/9/15,13,88
2010/9/15,14,88
2010/9/15,15,88
2010/9/15,16,86
2010/9/15,17,82
2010/9/15,18,86
2010/9/15,19,96
2010/9/15,20,109
2010/9/15,21,115
2010/9/15,22,111
2010/9/15,23,113
2010/10/6,0,192
2010/10/6,1,229
2010/10/6,2,235
2010/10/6,3,223
2010/10/6,4,184
2010/10/6,5,192
2010/10/6,6,141
2010/10/6,7,184
2010/10/6,8,192
2010/10/6,9,225
2010/10/6,10,214
2010/10/6,11,191
2010/10/6,12,195
2010/10/6,13,212
2010/10/6,14,209
2010/10/6,15,175
2010/10/6,16,187
2010/10/6,17,163
2010/10/6,18,182
2010/10/6,19,259
2010/10/6,20,237
2010/10/6,21,243
2010/10/6,22,271
2010/10/6,23,262
2010/10/13,0,93
2010/10/13,1,102
2010/10/13,2,101
2010/10/13,3,100
2010/10/13,4,100
2010/10/13,5,84
2010/10/13,6,101
2010/10/13,7,84
2010/10/13,8,86
2010/10/13,9,111
2010/10/13,10,87
2010/10/13,11,69
2010/10/13,12,51
2010/10/13,13,55
2010/10/13,14,75
2010/10/13,15,72
2010/10/13,16,53
2010/10/13,17,68
2010/10/13,18,78
2010/10/13,19,168
2010/10/13,20,193
2010/10/13,21,168
2010/10/13,22,110
2010/10/13,23,109
2010/10/20,0,73
2010/10/20,1,95
2010/10/20,2,101
2010/10/20,3,95
2010/10/20,4,85
2010/10/20,5,86
2010/10/20,6,86
2010/10/20,7,68
2010/10/20,8,73
2010/10/20,9,86
2010/10/20,10,105
2010/10/20,11,95
2010/10/20,12,96
2010/10/20,13,113
2010/10/20,14,118
2010/10/20,15,115
2010/10/20,16,126
2010/10/20,17,125
2010/10/20,18,117
2010/10/20,19,110
2010/10/20,20,120
2010/10/20,21,125
2010/10/20,22,100
2010/10/20,23,107
2010/10/27,0,57
2010/10/27,1,81
2010/10/27,2,52
2010/10/27,3,52
2010/10/27,4,48
2010/10/27,5,35
2010/10/27,6,23
2010/10/27,7,30
2010/10/27,8,37
2010/10/27,9,41
2010/10/27,10,37
2010/10/27,11,33
2010/10/27,12,54
2010/10/27,13,45
2010/10/27,14,49
2010/10/27,15,72
2010/10/27,16,59
2010/10/27,17,60
2010/10/27,18,41
2010/10/27,19,54
2010/10/27,20,58
2010/10/27,21,56
2010/10/27,22,76
2010/10/27,23,57
2010/11/3,15,28
2010/11/3,16,36
2010/11/3,17,104
2010/11/3,18,124
2010/11/3,19,133
2010/11/3,20,156
2010/11/3,21,161
2010/11/3,22,143
2010/11/3,23,142
2010/11/10,0,220
2010/11/10,1,197
2010/11/10,2,190
2010/11/10,3,178
2010/11/10,4,157
2010/11/10,5,147
2010/11/10,6,149
2010/11/10,7,128
2010/11/10,8,136
2010/11/10,9,154
2010/11/10,10,156
2010/11/10,11,130
2010/11/10,12,128
2010/11/10,13,127
2010/11/10,14,141
2010/11/10,15,144
2010/11/10,16,140
2010/11/10,17,146
2010/11/10,18,140
2010/11/10,19,175
2010/11/10,20,176
2010/11/10,21,181
2010/11/10,22,175
2010/11/10,23,173
2010/11/17,0,125
2010/11/17,1,125
2010/11/17,2,111
2010/11/17,3,109
2010/11/17,4,174
2010/11/17,5,170
2010/11/17,6,155
2010/11/17,7,147
2010/11/17,8,156
2010/11/17,9,171
2010/11/17,10,163
2010/11/17,11,153
2010/11/17,12,151
2010/11/17,13,145
2010/11/17,14,136
2010/11/17,15,149
2010/11/17,16,141
2010/11/17,17,177
2010/11/17,18,171
2010/11/17,19,173
2010/11/17,20,195
2010/11/17,21,182
2010/11/17,22,212
2010/11/17,23,207
2010/11/24,0,215
2010/11/24,1,189
2010/11/24,2,163
2010/11/24,3,142
2010/11/24,4,129
2010/11/24,5,164
2010/11/24,6,208
2010/11/24,7,46
2010/11/24,8,24
2010/11/24,9,18
2010/11/24,10,32
2010/11/24,11,23
2010/11/24,12,16
2010/11/24,13,14
2010/11/24,14,13
2010/11/24,15,13
2010/11/24,16,13
2010/11/24,17,12
2010/11/24,18,13
2010/11/24,19,11
2010/11/24,20,13
2010/11/24,21,15
2010/11/24,22,27
2010/11/24,23,48
2010/12/1,0,268
2010/12/1,1,268
2010/12/1,2,250
2010/12/1,3,244
2010/12/1,4,238
2010/12/1,5,233
2010/12/1,6,223
2010/12/1,7,217
2010/12/1,8,235
2010/12/1,9,246
2010/12/1,10,254
2010/12/1,11,233
2010/12/1,12,247
2010/12/1,13,272
2010/12/1,14,293
2010/12/1,15,299
2010/12/1,16,295
2010/12/1,17,298
2010/12/1,18,281
2010/12/1,19,300
2010/12/1,20,287
2010/12/1,21,281
2010/12/1,22,263
2010/12/1,23,243
2010/12/8,0,168
2010/12/8,1,169
2010/12/8,2,161
2010/12/8,3,161
2010/12/8,4,182
2010/12/8,5,113
2010/12/8,6,86
2010/12/8,7,112
2010/12/8,8,151
2010/12/8,9,127
2010/12/8,10,97
2010/12/8,11,86
2010/12/8,12,82
2010/12/8,13,103
2010/12/8,14,107
2010/12/8,15,99
2010/12/8,16,70
2010/12/8,17,41
2010/12/8,18,39
2010/12/8,19,39
2010/12/8,20,38
2010/12/8,21,82
2010/12/8,22,200
2010/12/8,23,191
2010/12/15,0,12
2010/12/15,1,10
2010/12/15,2,9
2010/12/15,3,7
2010/12/15,4,8
2010/12/15,5,6
2010/12/15,6,8
2010/12/15,7,8
2010/12/15,8,11
2010/12/15,9,11
2010/12/15,10,12
2010/12/15,11,14
2010/12/15,12,14
2010/12/15,13,13
2010/12/15,14,13
2010/12/15,15,14
2010/12/15,16,14
2010/12/15,17,15
2010/12/15,18,17
2010/12/15,19,63
2010/12/15,20,60
2010/12/15,21,64
2010/12/15,22,49
2010/12/15,23,40
2010/12/22,0,357
2010/12/22,1,277
2010/12/22,2,310
2010/12/22,3,300
2010/12/22,4,273
2010/12/22,5,204
2010/12/22,6,172
2010/12/22,7,130
2010/12/22,8,98
2010/12/22,9,87
2010/12/22,10,58
2010/12/22,11,35
2010/12/22,12,31
2010/12/22,13,31
2010/12/22,14,28
2010/12/22,15,24
2010/12/22,16,19
2010/12/22,17,18
2010/12/22,18,46
2010/12/22,19,37
2010/12/22,20,32
2010/12/22,21,33
2010/12/22,22,32
2010/12/22,23,29
2010/12/29,0,60
2010/12/29,1,101
2010/12/29,2,120
2010/12/29,3,47
2010/12/29,4,85
2010/12/29,5,85
2010/12/29,6,78
2010/12/29,7,60
2010/12/29,8,48
2010/12/29,9,64
2010/12/29,10,92
2010/12/29,11,73
2010/12/29,12,84
2010/12/29,13,36
2010/12/29,14,32
2010/12/29,15,22
2010/12/29,16,17
2010/12/29,17,16
2010/12/29,18,18
2010/12/29,19,20
2010/12/29,20,20
2010/12/29,21,20
2010/12/29,22,18
2010/12/29,23,17
2011/1/5,0,25
2011/1/5,1,22
2011/1/5,2,16
2011/1/5,3,17
2011/1/5,4,19
2011/1/5,5,17
2011/1/5,6,16
2011/1/5,7,16
2011/1/5,8,15
2011/1/5,9,19
2011/1/5,10,19
2011/1/5,11,22
2011/1/5,12,22
2011/1/5,13,23
2011/1/5,14,24
2011/1/5,15,24
2011/1/5,16,24
2011/1/5,17,25
2011/1/5,18,25
2011/1/5,19,24
2011/1/5,20,21
2011/1/5,21,22
2011/1/5,22,19
2011/1/5,23,19
2011/1/12,0,110
2011/1/12,1,109
2011/1/12,2,120
2011/1/12,3,127
2011/1/12,4,85
2011/1/12,5,86
2011/1/12,6,86
2011/1/12,7,93
2011/1/12,8,143
2011/1/12,9,127
2011/1/12,10,86
2011/1/12,11,78
2011/1/12,12,62
2011/1/12,13,67
2011/1/12,14,69
2011/1/12,15,80
2011/1/12,16,87
2011/1/12,17,105
2011/1/12,18,100
2011/1/12,19,101
2011/1/12,20,101
2011/1/12,21,149
2011/1/12,22,132
2011/1/12,23,139
2011/1/19,0,24
2011/1/19,1,15
2011/1/19,2,24
2011/1/19,3,14
2011/1/19,4,17
2011/1/19,5,13
2011/1/19,6,13
2011/1/19,7,54
2011/1/19,8,44
2011/1/19,9,32
2011/1/19,10,29
2011/1/19,11,28
2011/1/19,12,27
2011/1/19,13,32
2011/1/19,14,30
2011/1/19,15,38
2011/1/19,16,25
2011/1/19,17,21
2011/1/19,18,21
2011/1/19,19,24
2011/1/19,20,28
2011/1/19,21,57
2011/1/19,22,30
2011/1/19,23,22
2011/1/26,0,40
2011/1/26,1,60
2011/1/26,2,38
2011/1/26,3,44
2011/1/26,4,35
2011/1/26,5,24
2011/1/26,6,42
2011/1/26,7,44
2011/1/26,8,29
2011/1/26,9,30
2011/1/26,10,30
2011/1/26,11,26
2011/1/26,12,28
2011/1/26,13,34
2011/1/26,14,46
2011/1/26,15,50
2011/1/26,16,46
2011/1/26,17,47
2011/1/26,18,45
2011/1/26,19,25
2011/1/26,20,55
2011/1/26,21,80
2011/1/26,22,33
2011/1/26,23,36
2011/2/2,0,22
2011/2/2,1,63
2011/2/2,2,62
2011/2/2,3,86
2011/2/2,4,47
2011/2/2,5,37
2011/2/2,6,45
2011/2/2,7,44
2011/2/2,8,37
2011/2/2,9,34
2011/2/2,10,33
2011/2/2,11,31
2011/2/2,12,31
2011/2/2,13,30
2011/2/2,14,28
2011/2/2,15,28
2011/2/2,16,26
2011/2/2,17,24
2011/2/2,18,26
2011/2/2,19,27
2011/2/2,20,31
2011/2/2,21,31
2011/2/2,22,31
2011/2/2,23,28
2011/2/9,0,139
2011/2/9,1,129
2011/2/9,2,128
2011/2/9,3,173
2011/2/9,4,144
2011/2/9,5,167
2011/2/9,6,204
2011/2/9,7,161
2011/2/9,8,157
2011/2/9,9,118
2011/2/9,10,119
2011/2/9,11,168
2011/2/9,12,201
2011/2/9,13,207
2011/2/9,14,193
2011/2/9,15,131
2011/2/9,16,139
2011/2/9,17,139
2011/2/9,18,136
2011/2/9,19,121
2011/2/9,20,118
2011/2/9,21,112
2011/2/9,22,114
2011/2/9,23,87
2011/2/16,0,261
2011/2/16,1,280
2011/2/16,2,245
2011/2/16,3,123
2011/2/16,4,180
2011/2/16,5,120
2011/2/16,6,113
2011/2/16,7,112
2011/2/16,8,176
2011/2/16,9,199
2011/2/16,10,200
2011/2/16,11,206
2011/2/16,12,217
2011/2/16,13,220
2011/2/16,14,208
2011/2/16,15,216
2011/2/16,16,217
2011/2/16,17,225
2011/2/16,18,209
2011/2/16,19,223
2011/2/16,20,247
2011/2/16,21,245
2011/2/16,22,227
2011/2/16,23,253
2011/2/23,0,289
2011/2/23,1,284
2011/2/23,2,267
2011/2/23,3,240
2011/2/23,4,231
2011/2/23,5,258
2011/2/23,6,255
2011/2/23,7,252
2011/2/23,8,261
2011/2/23,9,276
2011/2/23,10,268
2011/2/23,11,300
2011/2/23,12,253
2011/2/23,13,237
2011/2/23,14,218
2011/2/23,15,179
2011/2/23,16,224
2011/2/23,17,264
2011/2/23,18,305
2011/2/23,19,301
2011/2/23,20,277
2011/2/23,21,263
2011/2/23,22,224
2011/2/23,23,190
2011/3/2,0,21
2011/3/2,1,18
2011/3/2,2,14
2011/3/2,3,33
2011/3/2,4,39
2011/3/2,5,57
2011/3/2,6,52
2011/3/2,7,96
2011/3/2,8,66
2011/3/2,9,29
2011/3/2,10,45
2011/3/2,11,47
2011/3/2,12,51
2011/3/2,13,41
2011/3/2,14,29
2011/3/2,15,28
2011/3/2,16,29
2011/3/2,17,30
2011/3/2,18,39
2011/3/2,19,31
2011/3/2,20,36
2011/3/2,21,30
2011/3/2,22,27
2011/3/2,23,22
2011/3/9,1,16
2011/3/9,2,14
2011/3/9,3,14
2011/3/9,4,12
2011/3/9,5,15
2011/3/9,6,17
2011/3/9,7,36
2011/3/9,8,33
2011/3/9,9,39
2011/3/9,10,60
2011/3/9,11,58
2011/3/9,12,32
2011/3/9,13,28
2011/3/9,14,26
2011/3/9,15,21
2011/3/9,16,18
2011/3/9,17,15
2011/3/9,18,15
2011/3/9,19,20
2011/3/9,20,68
2011/3/9,21,65
2011/3/9,22,52
2011/3/9,23,67
2011/3/16,0,22
2011/3/16,1,68
2011/3/16,2,42
2011/3/16,3,55
2011/3/16,4,54
2011/3/16,5,37
2011/3/16,6,43
2011/3/16,7,58
2011/3/16,8,36
2011/3/16,9,47
2011/3/16,10,64
2011/3/16,11,67
2011/3/16,12,73
2011/3/16,13,70
2011/3/16,14,82
2011/3/16,15,81
2011/3/16,16,79
2011/3/16,17,78
2011/3/16,18,75
2011/3/16,19,76
2011/3/16,20,76
2011/3/16,21,72
2011/3/16,22,102
2011/3/16,23,104
2011/3/23,0,17
2011/3/23,1,15
2011/3/23,2,14
2011/3/23,3,18
2011/3/23,4,4
2011/3/23,5,5
2011/3/23,6,8
2011/3/23,7,12
2011/3/23,8,14
2011/3/23,9,17
2011/3/23,10,16
2011/3/23,11,13
2011/3/23,12,13
2011/3/23,13,11
2011/3/23,14,12
2011/3/23,15,36
2011/3/23,16,44
2011/3/23,17,43
2011/3/23,18,61
2011/3/23,19,44
2011/3/23,20,48
2011/3/23,21,56
2011/3/23,22,49
2011/3/23,23,26
2011/3/30,0,100
2011/3/30,1,124
2011/3/30,2,127
2011/3/30,3,138
2011/3/30,4,158
2011/3/30,5,122
2011/3/30,6,146
2011/3/30,7,141
2011/3/30,8,102
2011/3/30,9,132
2011/3/30,10,114
2011/3/30,11,86
2011/3/30,12,67
2011/3/30,13,63
2011/3/30,14,74
2011/3/30,15,63
2011/3/30,16,61
2011/3/30,17,48
2011/3/30,18,49
2011/3/30,19,60
2011/4/6,0,81
2011/4/6,1,96
2011/4/6,2,75
2011/4/6,3,93
2011/4/6,4,93
2011/4/6,5,78
2011/4/6,6,96
2011/4/6,7,107
2011/4/6,8,118
2011/4/6,9,153
2011/4/13,0,110
2011/4/13,1,111
2011/4/13,2,115
2011/4/13,3,127
2011/4/13,4,120
2011/4/13,5,122
2011/4/13,6,122
2011/4/13,7,122
2011/4/13,8,135
2011/4/13,9,146
2011/4/13,10,135
2011/4/13,11,146
2011/4/13,12,150
2011/4/13,13,131
2011/4/13,14,115
2011/4/13,15,109
2011/4/13,16,97
2011/4/13,17,93
2011/4/13,18,93
2011/4/13,19,112
2011/4/13,20,131
2011/4/13,21,122
2011/4/13,22,116
2011/4/13,23,121
2011/4/20,0,103
2011/4/20,1,95
2011/4/20,2,110
2011/4/20,3,98
2011/4/20,4,96
2011/4/20,5,102
2011/4/20,6,99
2011/4/20,7,124
2011/4/20,8,119
2011/4/20,9,155
2011/4/20,10,131
2011/4/20,11,128
2011/4/20,12,123
2011/4/20,13,112
2011/4/20,14,106
2011/4/20,15,105
2011/4/20,16,99
2011/4/20,17,96
2011/4/20,18,86
2011/4/20,19,103
2011/4/20,20,119
2011/4/20,21,133
2011/4/20,22,126
2011/4/20,23,92
2011/4/27,0,131
2011/4/27,1,148
2011/4/27,2,199
2011/4/27,3,187
2011/4/27,4,179
2011/4/27,5,129
2011/4/27,6,101
2011/4/27,7,109
2011/4/27,8,111
2011/4/27,9,79
2011/4/27,10,59
2011/4/27,11,57
2011/4/27,12,88
2011/4/27,13,58
2011/4/27,14,59
2011/4/27,15,75
2011/4/27,16,100
2011/4/27,17,113
2011/4/27,18,100
2011/4/27,19,121
2011/4/27,20,121
2011/4/27,21,122
2011/4/27,22,123
2011/4/27,23,122
2011/5/4,0,88
2011/5/4,1,87
2011/5/4,2,85
2011/5/4,3,84
2011/5/4,4,86
2011/5/4,5,97
2011/5/4,6,93
2011/5/4,7,95
2011/5/4,8,112
2011/5/4,9,107
2011/5/4,10,117
2011/5/4,11,109
2011/5/4,12,109
2011/5/4,13,109
2011/5/4,14,113
2011/5/4,15,121
2011/5/4,16,120
2011/5/4,17,111
2011/5/4,18,99
2011/5/4,19,143
2011/5/4,20,179
2011/5/4,21,118
2011/5/4,22,129
2011/5/4,23,152
2011/5/11,0,121
2011/5/11,1,117
2011/5/11,2,106
2011/5/11,3,113
2011/5/11,4,114
2011/5/11,5,104
2011/5/11,6,109
2011/5/11,7,144
2011/5/11,8,140
2011/5/11,9,133
2011/5/11,10,136
2011/5/11,11,130
2011/5/11,12,73
2011/5/11,13,56
2011/5/11,14,57
2011/5/11,15,59
2011/5/11,16,48
2011/5/11,17,47
2011/5/11,18,37
2011/5/11,19,32
2011/5/11,20,36
2011/5/11,21,33
2011/5/11,22,33
2011/5/11,23,31
2011/5/18,0,109
2011/5/18,1,138
2011/5/18,2,114
2011/5/18,3,111
2011/5/18,4,106
2011/5/18,5,104
2011/5/18,6,116
2011/5/18,7,105
2011/5/18,8,124
2011/5/18,9,131
2011/5/18,10,119
2011/5/18,11,142
2011/5/18,12,132
2011/5/18,13,126
2011/5/18,14,148
2011/5/18,15,141
2011/5/18,16,136
2011/5/18,17,121
2011/5/18,18,51
2011/5/18,19,54
2011/5/18,20,42
2011/5/18,21,37
2011/5/18,22,34
2011/5/18,23,34
2011/5/25,0,76
2011/5/25,1,77
2011/5/25,2,85
2011/5/25,3,92
2011/5/25,4,94
2011/5/25,5,110
2011/5/25,6,112
2011/5/25,7,107
2011/5/25,8,114
2011/5/25,9,113
2011/5/25,10,115
2011/5/25,11,97
2011/5/25,12,91
2011/5/25,13,69
2011/5/25,14,69
2011/5/25,15,82
2011/5/25,16,74
2011/5/25,17,65
2011/5/25,18,65
2011/5/25,20,77
2011/5/25,21,80
2011/5/25,22,77
2011/5/25,23,111
2011/6/1,0,6
2011/6/1,1,6
2011/6/1,2,5
2011/6/1,3,3
2011/6/1,4,4
2011/6/1,5,5
2011/6/1,6,13
2011/6/1,7,15
2011/6/1,8,17
2011/6/1,9,19
2011/6/1,10,16
2011/6/1,11,15
2011/6/1,12,25
2011/6/1,13,24
2011/6/1,14,20
2011/6/1,15,25
2011/6/1,16,33
2011/6/1,17,36
2011/6/1,18,31
2011/6/1,20,59
2011/6/1,21,63
2011/6/1,22,82
2011/6/1,23,80
2011/6/8,0,133
2011/6/8,1,81
2011/6/8,2,47
2011/6/8,3,37
2011/6/8,4,24
2011/6/8,5,19
2011/6/8,6,111
2011/6/8,7,111
2011/6/8,8,92
2011/6/8,9,91
2011/6/8,10,57
2011/6/8,11,35
2011/6/8,12,34
2011/6/8,13,44
2011/6/8,14,71
2011/6/8,15,62
2011/6/8,16,66
2011/6/8,17,63
2011/6/8,18,83
2011/6/8,19,97
2011/6/8,20,107
2011/6/8,21,105
2011/6/8,22,128
2011/6/8,23,134
2011/6/15,0,147
2011/6/15,1,150
2011/6/15,2,134
2011/6/15,3,133
2011/6/15,4,137
2011/6/15,5,138
2011/6/15,6,141
2011/6/15,7,138
2011/6/15,8,137
2011/6/15,9,163
2011/6/15,10,161
2011/6/15,11,156
2011/6/15,12,158
2011/6/15,13,156
2011/6/15,14,169
2011/6/15,15,169
2011/6/15,16,165
2011/6/15,17,130
2011/6/15,18,86
2011/6/15,19,113
2011/6/15,20,96
2011/6/15,21,98
2011/6/15,22,97
2011/6/15,23,98
2011/6/22,0,108
2011/6/22,1,108
2011/6/22,2,119
2011/6/22,3,113
2011/6/22,4,116
2011/6/22,5,115
2011/6/22,6,119
2011/6/22,7,129
2011/6/22,8,127
2011/6/22,9,146
2011/6/22,10,147
2011/6/22,11,145
2011/6/22,12,138
2011/6/22,13,140
2011/6/22,14,147
2011/6/22,15,151
2011/6/22,16,141
2011/6/22,17,137
2011/6/22,18,192
2011/6/22,19,171
2011/6/22,20,175
2011/6/22,21,175
2011/6/22,22,176
2011/6/22,23,185
2011/6/29,0,123
2011/6/29,1,120
2011/6/29,2,126
2011/6/29,3,132
2011/6/29,4,147
2011/6/29,5,147
2011/6/29,6,154
2011/6/29,7,151
2011/6/29,8,145
2011/6/29,9,186
2011/6/29,10,186
2011/6/29,11,203
2011/6/29,12,193
2011/6/29,13,195
2011/6/29,14,196
2011/6/29,15,193
2011/6/29,16,204
2011/6/29,17,207
2011/6/29,18,204
2011/6/29,19,206
2011/6/29,20,211
2011/6/29,21,206
2011/6/29,22,164
2011/6/29,23,168
2011/7/6,0,94
2011/7/6,1,85
2011/7/6,2,92
2011/7/6,3,84
2011/7/6,4,75
2011/7/6,5,78
2011/7/6,6,75
2011/7/6,7,92
2011/7/6,8,96
2011/7/6,9,115
2011/7/6,10,107
2011/7/6,11,73
2011/7/6,12,65
2011/7/6,13,96
2011/7/6,14,87
2011/7/6,15,100
2011/7/6,16,102
2011/7/6,17,113
2011/7/6,18,108
2011/7/6,19,106
2011/7/6,20,108
2011/7/6,21,111
2011/7/6,22,82
2011/7/6,23,44
2011/7/13,0,147
2011/7/13,1,101
2011/7/13,2,115
2011/7/13,3,114
2011/7/13,4,113
2011/7/13,5,113
2011/7/13,6,112
2011/7/13,7,104
2011/7/13,8,127
2011/7/13,9,122
2011/7/13,10,122
2011/7/13,11,113
2011/7/13,12,110
2011/7/13,13,98
2011/7/13,14,86
2011/7/13,15,89
2011/7/13,16,102
2011/7/13,17,101
2011/7/13,18,84
2011/7/13,19,102
2011/7/13,20,106
2011/7/13,21,122
2011/7/13,22,122
2011/7/13,23,124
2011/7/20,0,101
2011/7/20,1,107
2011/7/20,2,111
2011/7/20,3,104
2011/7/20,4,71
2011/7/20,5,60
2011/7/20,6,57
2011/7/20,7,43
2011/7/20,8,38
2011/7/20,9,90
2011/7/20,10,88
2011/7/20,11,69
2011/7/20,12,115
2011/7/20,13,123
2011/7/20,14,137
2011/7/20,15,135
2011/7/20,16,128
2011/7/20,17,116
2011/7/20,18,108
2011/7/20,19,112
2011/7/20,20,117
2011/7/20,21,114
2011/7/20,22,108
2011/7/20,23,104
2011/7/27,0,83
2011/7/27,1,89
2011/7/27,2,107
2011/7/27,3,95
2011/7/27,4,93
2011/7/27,5,86
2011/7/27,6,75
2011/7/27,7,105
2011/7/27,8,118
2011/7/27,9,119
2011/7/27,10,129
2011/7/27,11,127
2011/7/27,12,129
2011/7/27,13,140
2011/7/27,14,178
2011/7/27,15,137
2011/7/27,16,133
2011/7/27,17,130
2011/7/27,18,117
2011/7/27,19,115
2011/7/27,20,119
2011/7/27,21,127
2011/7/27,22,130
2011/7/27,23,168
2011/8/3,12,88
2011/8/3,13,78
2011/8/3,14,74
2011/8/3,15,81
2011/8/3,16,71
2011/8/3,17,79
2011/8/3,18,63
2011/8/3,19,71
2011/8/3,20,71
2011/8/3,21,71
2011/8/3,22,75
2011/8/3,23,78
2011/8/10,21,112
2011/8/10,22,107
2011/8/10,23,118
2011/8/17,0,102
2011/8/17,1,105
2011/8/17,2,112
2011/8/17,3,111
2011/8/17,4,101
2011/8/17,5,107
2011/8/17,6,114
2011/8/17,7,132
2011/8/17,8,132
2011/8/17,9,133
2011/8/17,10,132
2011/8/17,11,109
2011/8/17,12,100
2011/8/17,13,123
2011/8/17,14,92
2011/8/17,15,80
2011/8/17,16,66
2011/8/17,17,46
2011/8/17,18,28
2011/8/17,19,33
2011/8/17,20,47
2011/8/17,21,38
2011/8/17,22,29
2011/8/17,23,27
2011/8/24,0,97
2011/8/24,10,131
2011/8/24,11,123
2011/8/24,12,111
2011/8/24,13,106
2011/8/24,14,99
2011/8/24,15,85
2011/8/24,16,72
2011/8/24,17,78
2011/8/24,18,84
2011/8/24,19,97
2011/8/24,20,89
2011/8/24,21,111
2011/8/24,22,101
2011/8/24,23,106
2011/8/31,0,119
2011/8/31,1,119
2011/8/31,2,125
2011/8/31,3,118
2011/8/31,4,119
2011/8/31,5,120
2011/8/31,6,121
2011/8/31,7,137
2011/8/31,8,140
2011/8/31,9,135
2011/8/31,10,125
2011/8/31,11,137
2011/8/31,12,135
2011/8/31,13,134
2011/8/31,14,128
2011/8/31,15,134
2011/8/31,16,119
2011/8/31,17,169
2011/8/31,18,162
2011/8/31,19,168
2011/8/31,20,161
2011/8/31,21,156
2011/8/31,22,172
2011/8/31,23,163
2011/9/7,0,117
2011/9/7,1,128
2011/9/7,2,128
2011/9/7,3,130
2011/9/7,4,134
2011/9/7,5,123
2011/9/7,6,125
2011/9/7,7,142
2011/9/7,8,154
2011/9/7,9,147
2011/9/7,10,156
2011/9/7,11,158
2011/9/7,12,156
2011/9/7,13,132
2011/9/7,14,66
2011/9/7,15,74
2011/9/7,16,67
2011/9/7,17,84
2011/9/7,18,96
2011/9/7,19,94
2011/9/7,20,92
2011/9/7,21,96
2011/9/7,22,87
2011/9/7,23,77
2011/9/14,0,120
2011/9/14,1,110
2011/9/14,2,110
2011/9/14,3,112
2011/9/14,4,108
2011/9/14,5,107
2011/9/14,6,107
2011/9/14,7,102
2011/9/14,8,114
2011/9/14,9,120
2011/9/14,10,113
2011/9/14,11,121
2011/9/14,12,122
2011/9/14,13,113
2011/9/14,14,108
2011/9/14,15,111
2011/9/14,16,96
2011/9/14,17,96
2011/9/14,18,96
2011/9/14,19,98
2011/9/14,20,98
2011/9/14,21,114
2011/9/14,22,104
2011/9/14,23,104
2011/9/21,0,134
2011/9/21,1,144
2011/9/21,2,156
2011/9/21,3,145
2011/9/21,4,117
2011/9/21,5,93
2011/9/21,6,95
2011/9/21,7,81
2011/9/21,8,85
2011/9/21,9,67
2011/9/21,10,59
2011/9/21,11,51
2011/9/21,12,46
2011/9/21,13,31
2011/9/21,14,32
2011/9/21,15,21
2011/9/21,16,35
2011/9/21,17,54
2011/9/21,18,65
2011/9/21,19,55
2011/9/21,20,53
2011/9/21,21,127
2011/9/21,22,159
2011/9/21,23,158
2011/9/28,0,139
2011/9/28,1,143
2011/9/28,2,130
2011/9/28,3,128
2011/9/28,4,126
2011/9/28,5,131
2011/9/28,6,135
2011/9/28,7,123
2011/9/28,8,132
2011/9/28,9,121
2011/9/28,10,124
2011/9/28,11,127
2011/9/28,12,130
2011/9/28,13,124
2011/9/28,14,130
2011/9/28,15,124
2011/9/28,16,122
2011/9/28,17,114
2011/9/28,18,118
2011/9/28,19,117
2011/9/28,20,119
2011/9/28,21,117
2011/9/28,22,116
2011/9/28,23,131
2011/10/12,0,231
2011/10/12,1,201
2011/10/12,2,214
2011/10/12,3,183
2011/10/12,4,203
2011/10/12,5,205
2011/10/12,6,201
2011/10/12,7,214
2011/10/12,8,200
2011/10/12,9,217
2011/10/12,10,217
2011/10/12,11,206
2011/10/12,12,201
2011/10/12,13,191
2011/10/12,14,181
2011/10/12,15,239
2011/10/12,17,178
2011/10/12,18,179
2011/10/12,19,157
2011/10/12,20,203
2011/10/12,21,212
2011/10/12,22,196
2011/10/12,23,187
2011/10/19,0,154
2011/10/19,1,180
2011/10/19,2,170
2011/10/19,3,175
2011/10/19,4,145
2011/10/19,5,104
2011/10/19,6,100
2011/10/19,7,84
2011/10/19,8,110
2011/10/19,9,126
2011/10/19,10,110
2011/10/19,11,74
2011/10/19,12,231
2011/10/19,13,250
2011/10/19,14,235
2011/10/19,15,232
2011/10/19,16,228
2011/10/19,17,224
2011/10/19,18,208
2011/10/19,19,259
2011/10/19,20,258
2011/10/19,21,259
2011/10/19,22,252
2011/10/19,23,212
2011/10/26,0,85
2011/10/26,1,110
2011/10/26,2,73
2011/10/26,3,79
2011/10/26,4,77
2011/10/26,5,95
2011/10/26,6,79
2011/10/26,7,89
2011/10/26,8,78
2011/10/26,9,71
2011/10/26,10,122
2011/10/26,11,103
2011/10/26,12,74
2011/10/26,13,135
2011/10/26,14,114
2011/10/26,15,123
2011/10/26,16,120
2011/11/2,0,58
2011/11/2,1,63
2011/11/2,2,51
2011/11/2,3,53
2011/11/2,4,56
2011/11/2,5,49
2011/11/2,6,40
2011/11/2,7,36
2011/11/2,8,21
2011/11/2,9,25
2011/11/2,10,68
2011/11/2,11,44
2011/11/2,12,43
2011/11/2,13,37
2011/11/2,14,74
2011/11/2,15,113
2011/11/2,16,94
2011/11/2,17,80
2011/11/2,18,72
2011/11/2,19,111
2011/11/2,20,95
2011/11/2,21,115
2011/11/2,22,91
2011/11/2,23,90
2011/11/9,0,126
2011/11/9,1,134
2011/11/9,2,125
2011/11/9,3,101
2011/11/9,4,72
2011/11/9,5,67
2011/11/9,6,59
2011/11/9,7,39
2011/11/9,8,13
2011/11/9,9,62
2011/11/9,10,36
2011/11/9,11,45
2011/11/9,12,44
2011/11/9,13,42
2011/11/9,14,48
2011/11/9,15,39
2011/11/9,16,67
2011/11/9,17,70
2011/11/9,18,86
2011/11/9,19,107
2011/11/9,20,99
2011/11/9,21,97
2011/11/9,22,105
2011/11/9,23,113
2011/11/16,0,212
2011/11/16,1,200
2011/11/16,2,159
2011/11/16,3,146
2011/11/16,4,163
2011/11/16,5,177
2011/11/16,6,185
2011/11/16,7,165
2011/11/16,8,173
2011/11/16,9,174
2011/11/16,10,133
2011/11/16,13,151
2011/11/16,14,162
2011/11/16,15,136
2011/11/16,16,142
2011/11/16,17,134
2011/11/16,18,123
2011/11/16,19,123
2011/11/16,20,101
2011/11/16,21,108
2011/11/16,22,101
2011/11/16,23,114
2011/11/23,0,23
2011/11/23,1,24
2011/11/23,2,25
2011/11/23,3,25
2011/11/23,4,26
2011/11/23,5,19
2011/11/23,6,15
2011/11/23,7,19
2011/11/23,8,20
2011/11/23,9,18
2011/11/23,10,17
2011/11/23,11,20
2011/11/23,12,22
2011/11/23,13,23
2011/11/23,14,23
2011/11/23,15,25
2011/11/23,16,25
2011/11/23,17,27
2011/11/23,18,118
2011/11/23,19,118
2011/11/23,20,118
2011/11/23,21,83
2011/11/23,22,79
2011/11/23,23,132
2011/11/30,0,103
2011/11/30,1,128
2011/11/30,2,86
2011/11/30,3,76
2011/11/30,4,54
2011/11/30,5,67
2011/11/30,6,68
2011/11/30,7,67
2011/11/30,8,5
2011/11/30,9,11
2011/11/30,10,14
2011/11/30,12,6
2011/11/30,13,10
2011/11/30,14,17
2011/11/30,15,12
2011/11/30,16,13
2011/11/30,17,46
2011/11/30,18,80
2011/11/30,19,44
2011/11/30,20,53
2011/11/30,21,60
2011/11/30,22,106
2011/11/30,23,100
2011/12/7,0,224
2011/12/7,1,231
2011/12/7,2,228
2011/12/7,3,240
2011/12/7,4,219
2011/12/7,5,216
2011/12/7,6,201
2011/12/7,7,194
2011/12/7,8,196
2011/12/7,9,213
2011/12/7,10,221
2011/12/7,11,116
2011/12/7,12,89
2011/12/7,13,57
2011/12/7,14,70
2011/12/7,15,67
2011/12/7,16,44
2011/12/7,17,38
2011/12/7,18,38
2011/12/7,19,22
2011/12/7,20,25
2011/12/7,21,23
2011/12/7,22,10
2011/12/7,23,9
2011/12/14,0,32
2011/12/14,1,44
2011/12/14,2,22
2011/12/14,3,20
2011/12/14,4,14
2011/12/14,5,10
2011/12/14,6,7
2011/12/14,7,8
2011/12/14,8,10
2011/12/14,9,16
2011/12/14,10,18
2011/12/14,11,17
2011/12/14,12,17
2011/12/14,13,16
2011/12/14,14,17
2011/12/14,15,16
2011/12/14,16,16
2011/12/14,17,19
2011/12/14,18,18
2011/12/14,19,16
2011/12/14,20,17
2011/12/14,21,17
2011/12/14,22,16
2011/12/14,23,16
2011/12/21,0,94
2011/12/21,1,181
2011/12/21,2,174
2011/12/21,3,176
2011/12/21,4,57
2011/12/21,5,105
2011/12/21,6,103
2011/12/21,7,38
2011/12/21,8,36
2011/12/21,9,39
2011/12/21,10,38
2011/12/21,11,31
2011/12/21,13,26
2011/12/21,14,18
2011/12/21,15,18
2011/12/21,16,16
2011/12/21,17,17
2011/12/21,18,19
2011/12/21,19,21
2011/12/21,20,21
2011/12/21,21,21
2011/12/21,22,109
2011/12/21,23,95
2011/12/28,0,216
2011/12/28,1,225
2011/12/28,2,184
2011/12/28,3,177
2011/12/28,4,156
2011/12/28,5,140
2011/12/28,6,99
2011/12/28,7,89
2011/12/28,8,111
2011/12/28,9,144
2011/12/28,10,118
2011/12/28,11,88
2011/12/28,12,100
2011/12/28,13,96
2011/12/28,14,110
2011/12/28,15,151
2011/12/28,16,145
2011/12/28,17,170
2011/12/28,18,213
2011/12/28,19,198
2011/12/28,20,188
2011/12/28,21,190
2011/12/28,22,155
2011/12/28,23,92
2012/1/4,0,16
2012/1/4,1,16
2012/1/4,2,18
2012/1/4,3,17
2012/1/4,4,19
2012/1/4,5,63
2012/1/4,6,31
2012/1/4,7,73
2012/1/4,8,21
2012/1/4,9,34
2012/1/4,10,34
2012/1/4,11,34
2012/1/4,12,36
2012/1/4,13,35
2012/1/4,14,37
2012/1/4,15,33
2012/1/4,16,29
2012/1/4,17,30
2012/1/4,18,74
2012/1/4,19,76
2012/1/4,20,112
2012/1/4,21,90
2012/1/4,22,153
2012/1/4,23,131
2012/1/11,0,36
2012/1/11,1,30
2012/1/11,2,47
2012/1/11,3,34
2012/1/11,4,21
2012/1/11,5,55
2012/1/11,6,54
2012/1/11,7,59
2012/1/11,8,36
2012/1/11,9,34
2012/1/11,10,39
2012/1/11,11,52
2012/1/11,12,68
2012/1/11,13,85
2012/1/11,14,79
2012/1/11,15,89
2012/1/11,16,90
2012/1/11,17,88
2012/1/11,18,77
2012/1/11,19,80
2012/1/11,20,84
2012/1/11,21,83
2012/1/11,22,76
2012/1/11,23,169
2012/1/18,0,279
2012/1/18,1,267
2012/1/18,2,239
2012/1/18,3,261
2012/1/18,4,259
2012/1/18,5,273
2012/1/18,6,256
2012/1/18,7,242
2012/1/18,8,229
2012/1/18,9,199
2012/1/18,10,162
2012/1/18,11,137
2012/1/18,12,206
2012/1/18,13,211
2012/1/18,14,194
2012/1/18,15,235
2012/1/18,16,227
2012/1/18,17,251
2012/1/18,18,288
2012/1/18,19,279
2012/1/18,20,308
2012/1/18,21,251
2012/1/18,22,266
2012/1/18,23,257
2012/1/25,0,342
2012/1/25,1,89
2012/1/25,2,369
2012/1/25,3,127
2012/1/25,4,127
2012/1/25,5,171
2012/1/25,6,164
2012/1/25,7,162
2012/1/25,8,153
2012/1/25,9,56
2012/1/25,10,30
2012/1/25,11,39
2012/1/25,12,50
2012/1/25,13,50
2012/1/25,14,49
2012/1/25,15,38
2012/1/25,16,40
2012/1/25,17,45
2012/1/25,18,55
2012/1/25,19,57
2012/1/25,20,71
2012/1/25,21,78
2012/1/25,22,73
2012/1/25,23,93
2012/2/1,0,30
2012/2/1,1,89
2012/2/1,2,42
2012/2/1,3,4
2012/2/1,4,-2
2012/2/1,5,0
2012/2/1,6,0
2012/2/1,7,-2
2012/2/1,8,-2
2012/2/1,9,18
2012/2/1,10,15
2012/2/1,11,16
2012/2/1,12,6
2012/2/1,13,6
2012/2/1,14,8
2012/2/1,15,5
2012/2/1,16,5
2012/2/1,17,9
2012/2/1,18,21
2012/2/1,19,10
2012/2/1,20,21
2012/2/1,21,12
2012/2/1,22,-5
2012/2/1,23,0
2012/2/8,0,15
2012/2/8,1,16
2012/2/8,2,15
2012/2/8,3,20
2012/2/8,4,19
2012/2/8,5,17
2012/2/8,6,21
2012/2/8,7,21
2012/2/8,8,42
2012/2/8,9,44
2012/2/8,10,39
2012/2/8,11,41
2012/2/8,12,32
2012/2/8,13,33
2012/2/8,14,30
2012/2/8,15,28
2012/2/8,16,25
2012/2/8,17,26
2012/2/8,18,64
2012/2/8,19,68
2012/2/8,20,76
2012/2/8,21,80
2012/2/8,22,92
2012/2/8,23,78
2012/2/15,0,170
2012/2/15,1,166
2012/2/15,2,137
2012/2/15,3,111
2012/2/15,4,101
2012/2/15,5,95
2012/2/15,6,119
2012/2/15,7,130
2012/2/15,8,120
2012/2/15,9,148
2012/2/15,10,132
2012/2/15,11,139
2012/2/15,12,137
2012/2/15,13,186
2012/2/15,14,187
2012/2/15,15,162
2012/2/15,16,128
2012/2/15,17,193
2012/2/15,18,153
2012/2/15,19,211
2012/2/15,20,168
2012/2/15,21,156
2012/2/15,22,35
2012/2/15,23,32
2012/2/22,0,291
2012/2/22,1,292
2012/2/22,2,234
2012/2/22,3,231
2012/2/22,4,229
2012/2/22,5,247
2012/2/22,6,248
2012/2/22,7,225
2012/2/22,8,248
2012/2/22,9,239
2012/2/22,10,258
2012/2/22,11,259
2012/2/22,12,271
2012/2/22,13,279
2012/2/22,14,289
2012/2/22,15,291
2012/2/22,16,296
2012/2/22,17,286
2012/2/22,18,272
2012/2/22,19,201
2012/2/22,20,78
2012/2/22,21,63
2012/2/22,22,59
2012/2/22,23,63
2012/2/29,0,104
2012/2/29,1,113
2012/2/29,2,200
2012/2/29,3,262
2012/2/29,4,237
2012/2/29,5,236
2012/2/29,6,238
2012/2/29,7,235
2012/2/29,8,269
2012/2/29,9,206
2012/2/29,16,172
2012/2/29,17,204
2012/2/29,18,281
2012/2/29,19,242
2012/2/29,20,236
2012/2/29,21,245
2012/2/29,22,288
2012/2/29,23,265
2012/3/7,0,65
2012/3/7,1,48
2012/3/7,2,56
2012/3/7,3,43
2012/3/7,4,61
2012/3/7,5,68
2012/3/7,6,39
2012/3/7,7,48
2012/3/7,8,60
2012/3/7,9,62
2012/3/7,10,56
2012/3/7,11,52
2012/3/7,12,39
2012/3/7,13,30
2012/3/7,15,18
2012/3/7,16,17
2012/3/7,17,16
2012/3/7,18,17
2012/3/7,19,20
2012/3/7,20,21
2012/3/7,21,23
2012/3/7,22,19
2012/3/7,23,17
2012/3/14,0,30
2012/3/14,1,62
2012/3/14,2,29
2012/3/14,3,24
2012/3/14,4,16
2012/3/14,5,16
2012/3/14,6,17
2012/3/14,7,18
2012/3/14,8,19
2012/3/14,9,19
2012/3/14,10,19
2012/3/14,11,48
2012/3/14,12,44
2012/3/14,13,35
2012/3/14,14,45
2012/3/14,15,48
2012/3/14,17,55
2012/3/14,18,57
2012/3/14,19,75
2012/3/14,20,75
2012/3/14,21,74
2012/3/14,22,89
2012/3/14,23,90
2012/3/21,0,134
2012/3/21,1,133
2012/3/21,2,130
2012/3/21,3,130
2012/3/21,4,130
2012/3/21,5,129
2012/3/21,6,121
2012/3/21,7,151
2012/3/21,8,161
2012/3/21,9,193
2012/3/21,10,200
2012/3/21,11,196
2012/3/21,12,184
2012/3/21,13,164
2012/3/21,14,151
2012/3/21,15,143
2012/3/21,16,153
2012/3/21,17,135
2012/3/21,18,132
2012/3/21,19,171
2012/3/21,20,194
2012/3/21,21,200
2012/3/21,22,180
2012/3/21,23,197
2012/3/28,0,26
2012/3/28,1,34
2012/3/28,2,26
2012/3/28,3,29
2012/3/28,4,23
2012/3/28,5,34
2012/3/28,6,88
2012/3/28,7,111
2012/3/28,8,93
2012/3/28,9,79
2012/3/28,10,89
2012/3/28,11,88
2012/3/28,12,104
2012/3/28,13,98
2012/3/28,14,86
2012/3/28,15,89
2012/3/28,16,82
2012/3/28,17,90
2012/3/28,18,70
2012/3/28,19,83
2012/3/28,20,96
2012/3/28,21,112
2012/3/28,22,112
2012/3/28,23,102
2012/4/4,0,56
2012/4/4,1,23
2012/4/4,2,22
2012/4/4,3,11
2012/4/4,4,31
2012/4/4,5,5
2012/4/4,6,21
2012/4/4,7,35
2012/4/4,8,44
2012/4/4,9,49
2012/4/4,10,39
2012/4/4,11,42
2012/4/4,12,40
2012/4/4,13,35
2012/4/4,14,28
2012/4/4,15,27
2012/4/4,16,27
2012/4/4,17,27
2012/4/4,18,31
2012/4/4,19,25
2012/4/4,20,21
2012/4/4,21,10
2012/4/4,22,30
2012/4/4,23,27
2012/4/11,0,80
2012/4/11,1,96
2012/4/11,2,60
2012/4/11,3,54
2012/4/11,4,35
2012/4/11,5,51
2012/4/11,6,34
2012/4/11,7,25
2012/4/11,8,34
2012/4/11,9,48
2012/4/11,10,33
2012/4/11,11,32
2012/4/11,12,31
2012/4/11,13,33
2012/4/11,14,33
2012/4/11,15,33
2012/4/11,16,32
2012/4/11,17,31
2012/4/11,18,29
2012/4/11,19,42
2012/4/11,20,88
2012/4/11,21,98
2012/4/11,22,90
2012/4/11,23,97
2012/4/18,0,121
2012/4/18,1,132
2012/4/18,2,132
2012/4/18,3,135
2012/4/18,4,143
2012/4/18,5,149
2012/4/18,6,151
2012/4/18,7,147
2012/4/18,8,155
2012/4/18,9,160
2012/4/18,10,164
2012/4/18,11,156
2012/4/18,12,156
2012/4/18,13,149
2012/4/18,14,147
2012/4/18,15,149
2012/4/18,16,137
2012/4/18,17,174
2012/4/18,18,148
2012/4/18,19,163
2012/4/18,20,181
2012/4/18,21,137
2012/4/18,22,165
2012/4/18,23,134
2012/4/25,0,67
2012/4/25,1,69
2012/4/25,2,51
2012/4/25,3,53
2012/4/25,4,63
2012/4/25,5,51
2012/4/25,6,50
2012/4/25,7,50
2012/4/25,8,48
2012/4/25,9,62
2012/4/25,10,44
2012/4/25,11,15
2012/4/25,12,15
2012/4/25,13,15
2012/4/25,14,19
2012/4/25,15,19
2012/4/25,16,19
2012/4/25,17,20
2012/4/25,18,37
2012/4/25,19,37
2012/4/25,20,34
2012/4/25,21,142
2012/4/25,22,137
2012/4/25,23,140
2012/5/2,0,94
2012/5/2,1,93
2012/5/2,2,104
2012/5/2,3,109
2012/5/2,4,104
2012/5/2,5,118
2012/5/2,6,126
2012/5/2,7,128
2012/5/2,8,140
2012/5/2,9,112
2012/5/2,10,102
2012/5/2,11,131
2012/5/2,12,104
2012/5/2,13,53
2012/5/2,14,48
2012/5/2,15,64
2012/5/2,16,56
2012/5/2,17,68
2012/5/2,18,74
2012/5/2,19,88
2012/5/2,20,94
2012/5/2,21,107
2012/5/2,22,125
2012/5/2,23,127
2012/5/9,0,79
2012/5/9,1,97
2012/5/9,2,90
2012/5/9,3,77
2012/5/9,4,95
2012/5/9,5,114
2012/5/9,6,100
2012/5/9,7,87
2012/5/9,8,86
2012/5/9,9,86
2012/5/9,10,81
2012/5/9,11,88
2012/5/9,12,107
2012/5/9,13,89
2012/5/9,14,94
2012/5/9,15,99
2012/5/9,16,105
2012/5/9,17,97
2012/5/9,18,85
2012/5/9,19,84
2012/5/9,20,81
2012/5/9,21,86
2012/5/9,22,72
2012/5/9,23,73
2012/5/16,0,67
2012/5/16,1,35
2012/5/16,2,38
2012/5/16,3,95
2012/5/16,4,74
2012/5/16,5,38
2012/5/16,6,42
2012/5/16,7,34
2012/5/16,8,37
2012/5/16,9,44
2012/5/16,10,43
2012/5/16,11,41
2012/5/16,12,40
2012/5/16,13,40
2012/5/16,14,39
2012/5/16,15,39
2012/5/16,16,38
2012/5/16,17,35
2012/5/16,18,34
2012/5/16,19,34
2012/5/16,20,36
2012/5/16,21,34
2012/5/16,22,33
2012/5/16,23,32
2012/5/23,0,91
2012/5/23,1,97
2012/5/23,2,50
2012/5/23,3,51
2012/5/23,4,34
2012/5/23,5,58
2012/5/23,6,62
2012/5/23,7,62
2012/5/23,8,53
2012/5/23,9,66
2012/5/23,10,51
2012/5/23,11,51
2012/5/23,12,83
2012/5/23,13,81
2012/5/23,14,74
2012/5/23,15,72
2012/5/23,16,63
2012/5/23,17,62
2012/5/23,18,67
2012/5/23,19,79
2012/5/23,20,77
2012/5/23,21,80
2012/5/23,22,72
2012/5/23,23,79
2012/5/30,0,62
2012/5/30,1,66
2012/5/30,2,50
2012/5/30,3,50
2012/5/30,4,51
2012/5/30,5,100
2012/5/30,6,64
2012/5/30,7,54
2012/5/30,8,58
2012/5/30,9,54
2012/5/30,10,55
2012/5/30,11,47
2012/5/30,12,43
2012/5/30,13,62
2012/5/30,14,44
2012/5/30,15,63
2012/5/30,16,51
2012/5/30,17,52
2012/5/30,18,39
2012/5/30,19,48
2012/5/30,20,49
2012/5/30,21,56
2012/5/30,22,74
2012/5/30,23,87
2012/6/6,0,117
2012/6/6,1,103
2012/6/6,2,103
2012/6/6,3,84
2012/6/6,4,85
2012/6/6,5,53
2012/6/6,6,57
2012/6/6,7,58
2012/6/6,8,62
2012/6/6,9,100
2012/6/6,10,89
2012/6/6,11,96
2012/6/6,12,100
2012/6/6,13,113
2012/6/6,14,125
2012/6/6,15,127
2012/6/6,16,134
2012/6/6,17,43
2012/6/6,18,40
2012/6/6,19,46
2012/6/6,20,79
2012/6/6,21,94
2012/6/6,22,67
2012/6/6,23,60
2012/6/13,0,47
2012/6/13,1,46
2012/6/13,2,65
2012/6/13,3,60
2012/6/13,4,63
2012/6/13,5,57
2012/6/13,6,56
2012/6/13,7,68
2012/6/13,8,60
2012/6/13,9,66
2012/6/13,10,86
2012/6/13,11,58
2012/6/13,12,58
2012/6/13,13,71
2012/6/13,14,83
2012/6/13,15,99
2012/6/13,16,89
2012/6/13,17,86
2012/6/13,18,77
2012/6/13,19,56
2012/6/13,20,80
2012/6/13,21,47
2012/6/13,22,49
2012/6/13,23,37
2012/6/20,0,184
2012/6/20,1,182
2012/6/20,2,149
2012/6/20,3,131
2012/6/20,4,102
2012/6/20,5,138
2012/6/20,7,162
2012/6/20,8,105
2012/6/20,9,109
2012/6/20,10,106
2012/6/20,11,107
2012/6/20,12,110
2012/6/20,13,103
2012/6/20,14,139
2012/6/20,15,126
2012/6/20,16,128
2012/6/20,17,123
2012/6/20,18,120
2012/6/20,19,155
2012/6/20,20,159
2012/6/20,21,159
2012/6/20,22,152
2012/6/20,23,166
2012/6/27,0,112
2012/6/27,1,115
2012/6/27,2,116
2012/6/27,3,115
2012/6/27,4,133
2012/6/27,5,134
2012/6/27,6,134
2012/6/27,7,131
2012/6/27,8,127
2012/6/27,9,127
2012/6/27,10,115
2012/6/27,11,119
2012/6/27,12,99
2012/6/27,13,100
2012/6/27,14,97
2012/6/27,15,98
2012/6/27,16,100
2012/6/27,17,99
2012/6/27,18,94
2012/6/27,19,97
2012/6/27,20,97
2012/6/27,21,104
2012/6/27,22,94
2012/6/27,23,111
2012/7/4,0,52
2012/7/4,1,52
2012/7/4,2,61
2012/7/4,3,57
2012/7/4,4,48
2012/7/4,5,72
2012/7/4,6,86
2012/7/4,7,64
2012/7/4,8,57
2012/7/4,9,55
2012/7/4,10,55
2012/7/4,11,57
2012/7/4,12,73
2012/7/4,13,74
2012/7/4,14,75
2012/7/4,15,71
2012/7/4,16,68
2012/7/4,18,88
2012/7/4,19,69
2012/7/4,20,72
2012/7/4,21,56
2012/7/4,22,54
2012/7/4,23,64
2012/7/11,0,66
2012/7/11,1,68
2012/7/11,2,73
2012/7/11,3,70
2012/7/11,4,75
2012/7/11,5,74
2012/7/11,6,71
2012/7/11,7,72
2012/7/11,8,81
2012/7/11,9,112
2012/7/11,10,112
2012/7/11,11,110
2012/7/11,12,111
2012/7/11,13,103
2012/7/11,14,116
2012/7/11,15,78
2012/7/11,16,101
2012/7/11,17,97
2012/7/11,18,109
2012/7/11,19,109
2012/7/11,20,95
2012/7/11,21,96
2012/7/11,22,101
2012/7/11,23,77
2012/7/18,0,137
2012/7/18,2,137
2012/7/18,3,139
2012/7/18,4,142
2012/7/18,5,115
2012/7/18,6,117
2012/7/18,7,122
2012/7/18,8,126
2012/7/18,9,152
2012/7/18,10,128
2012/7/18,11,109
2012/7/18,12,107
2012/7/18,13,106
2012/7/18,14,102
2012/7/18,15,98
2012/7/18,16,96
2012/7/18,17,113
2012/7/18,18,93
2012/7/18,19,93
2012/7/18,20,112
2012/7/18,21,120
2012/7/18,22,115
2012/7/18,23,116
2012/7/25,0,157
2012/7/25,1,157
2012/7/25,2,160
2012/7/25,3,155
2012/7/25,4,159
2012/7/25,5,147
2012/7/25,6,144
2012/7/25,7,163
2012/7/25,8,158
2012/7/25,9,169
2012/7/25,10,203
2012/7/25,11,234
2012/7/25,12,180
2012/7/25,13,176
2012/7/25,14,145
2012/7/25,15,185
2012/7/25,16,186
2012/7/25,17,144
2012/7/25,18,123
2012/7/25,19,120
2012/7/25,20,155
2012/7/25,21,166
2012/7/25,22,155
2012/7/25,23,155
2012/8/1,0,16
2012/8/1,1,9
2012/8/1,2,9
2012/8/1,3,33
2012/8/1,4,33
2012/8/1,5,87
2012/8/1,6,78
2012/8/1,7,57
2012/8/1,8,45
2012/8/1,9,45
2012/8/1,10,35
2012/8/1,11,36
2012/8/1,12,31
2012/8/1,13,39
2012/8/1,14,23
2012/8/1,15,26
2012/8/1,16,16
2012/8/1,17,19
2012/8/1,18,15
2012/8/1,19,62
2012/8/1,20,56
2012/8/1,21,46
2012/8/1,22,48
2012/8/1,23,87
2012/8/8,0,136
2012/8/8,1,139
2012/8/8,2,140
2012/8/8,3,155
2012/8/8,4,157
2012/8/8,5,147
2012/8/8,6,153
2012/8/8,7,155
2012/8/8,8,162
2012/8/8,9,163
2012/8/8,10,161
2012/8/8,11,152
2012/8/8,12,156
2012/8/8,13,176
2012/8/8,14,145
2012/8/8,15,160
2012/8/8,16,151
2012/8/8,17,86
2012/8/8,18,128
2012/8/8,19,143
2012/8/8,20,124
2012/8/8,21,137
2012/8/8,22,127
2012/8/8,23,119
2012/8/15,0,61
2012/8/15,1,59
2012/8/15,2,57
2012/8/15,3,68
2012/8/15,4,65
2012/8/15,5,67
2012/8/15,6,67
2012/8/15,7,77
2012/8/15,8,50
2012/8/15,9,78
2012/8/15,10,78
2012/8/15,11,66
2012/8/15,12,59
2012/8/15,13,47
2012/8/15,14,30
2012/8/15,15,53
2012/8/15,16,36
2012/8/15,17,34
2012/8/15,18,72
2012/8/15,19,49
2012/8/15,20,53
2012/8/15,21,57
2012/8/15,22,61
2012/8/15,23,75
2012/8/22,0,92
2012/8/22,1,69
2012/8/22,2,89
2012/8/22,3,113
2012/8/22,4,100
2012/8/22,5,84
2012/8/22,6,112
2012/8/22,7,43
2012/8/22,8,29
2012/8/22,9,33
2012/8/22,10,33
2012/8/22,11,24
2012/8/22,12,35
2012/8/22,13,15
2012/8/22,14,30
2012/8/22,15,35
2012/8/22,16,36
2012/8/22,17,32
2012/8/22,18,38
2012/8/22,19,46
2012/8/22,20,61
2012/8/22,21,62
2012/8/22,22,76
2012/8/22,23,69
2012/8/29,0,120
2012/8/29,1,121
2012/8/29,2,124
2012/8/29,3,105
2012/8/29,4,100
2012/8/29,5,91
2012/8/29,6,84
2012/8/29,7,90
2012/8/29,8,61
2012/8/29,9,50
2012/8/29,10,30
2012/8/29,11,24
2012/8/29,12,35
2012/8/29,13,15
2012/8/29,14,14
2012/8/29,15,40
2012/8/29,16,87
2012/8/29,17,121
2012/8/29,18,121
2012/8/29,19,133
2012/8/29,20,128
2012/8/29,21,125
2012/8/29,22,128
2012/8/29,23,118
2012/9/5,0,81
2012/9/5,1,136
2012/9/5,2,116
2012/9/5,3,103
2012/9/5,4,103
2012/9/5,5,93
2012/9/5,6,91
2012/9/5,7,100
2012/9/5,8,74
2012/9/5,9,76
2012/9/5,10,73
2012/9/5,11,74
2012/9/5,12,67
2012/9/5,13,46
2012/9/5,14,53
2012/9/5,15,63
2012/9/5,16,70
2012/9/5,17,44
2012/9/5,18,60
2012/9/5,19,73
2012/9/5,20,80
2012/9/5,21,105
2012/9/5,22,107
2012/9/5,23,85
2012/9/12,0,112
2012/9/12,1,109
2012/9/12,2,109
2012/9/12,3,89
2012/9/12,4,50
2012/9/12,5,29
2012/9/12,6,32
2012/9/12,7,17
2012/9/12,8,25
2012/9/12,9,18
2012/9/12,10,21
2012/9/12,11,7
2012/9/12,12,8
2012/9/12,13,7
2012/9/12,14,6
2012/9/12,15,24
2012/9/12,16,16
2012/9/12,17,13
2012/9/12,18,12
2012/9/12,19,12
2012/9/12,20,31
2012/9/12,21,73
2012/9/12,22,57
2012/9/12,23,64
2012/9/19,0,113
2012/9/19,1,122
2012/9/19,2,131
2012/9/19,3,124
2012/9/19,4,146
2012/9/19,5,146
2012/9/19,6,133
2012/9/19,7,128
2012/9/19,8,93
2012/9/19,9,93
2012/9/19,10,65
2012/9/19,11,28
2012/9/19,12,25
2012/9/19,13,17
2012/9/19,14,30
2012/9/19,15,28
2012/9/19,16,27
2012/9/19,17,33
2012/9/19,18,67
2012/9/19,19,82
2012/9/19,20,89
2012/9/19,21,115
2012/9/19,22,120
2012/9/19,23,102
2012/9/26,0,173
2012/9/26,1,190
2012/9/26,2,154
2012/9/26,3,133
2012/9/26,5,119
2012/9/26,6,118
2012/9/26,7,123
2012/9/26,8,106
2012/9/26,9,111
2012/9/26,10,100
2012/9/26,11,104
2012/9/26,12,112
2012/9/26,13,57
2012/9/26,14,53
2012/9/26,15,28
2012/9/26,16,25
2012/9/26,17,98
2012/9/26,18,121
2012/9/26,19,152
2012/9/26,20,128
2012/9/26,21,162
2012/9/26,22,169
2012/9/26,23,160
2012/10/3,0,207
2012/10/3,1,174
2012/10/3,2,203
2012/10/3,4,193
2012/10/3,5,174
2012/10/3,6,157
2012/10/3,7,129
2012/10/3,8,81
2012/10/3,9,37
2012/10/3,10,20
2012/10/3,11,16
2012/10/3,12,10
2012/10/3,13,5
2012/10/3,14,6
2012/10/3,15,12
2012/10/3,16,15
2012/10/3,17,25
2012/10/3,18,70
2012/10/3,19,90
2012/10/3,20,103
2012/10/3,21,26
2012/10/3,22,78
2012/10/3,23,129
2012/10/10,0,17
2012/10/10,1,15
2012/10/10,2,17
2012/10/10,3,15
2012/10/10,4,55
2012/10/10,5,73
2012/10/10,6,71
2012/10/10,7,67
2012/10/10,8,41
2012/10/10,9,46
2012/10/10,10,31
2012/10/10,11,36
2012/10/10,12,31
2012/10/10,13,27
2012/10/10,14,27
2012/10/10,15,17
2012/10/10,16,16
2012/10/10,17,13
2012/10/10,18,68
2012/10/10,19,32
2012/10/10,20,45
2012/10/10,21,64
2012/10/10,22,43
2012/10/10,23,123
2012/10/17,0,16
2012/10/17,1,97
2012/10/17,2,116
2012/10/17,3,113
2012/10/17,4,102
2012/10/17,5,98
2012/10/17,6,108
2012/10/17,7,101
2012/10/17,8,67
2012/10/17,9,74
2012/10/17,10,65
2012/10/17,11,25
2012/10/17,12,24
2012/10/17,13,16
2012/10/17,14,20
2012/10/17,15,19
2012/10/17,16,8
2012/10/17,17,30
2012/10/17,18,60
2012/10/17,19,48
2012/10/17,20,51
2012/10/17,21,63
2012/10/17,22,116
2012/10/17,23,132
2012/10/24,0,170
2012/10/24,1,167
2012/10/24,2,161
2012/10/24,3,147
2012/10/24,4,160
2012/10/24,5,151
2012/10/24,6,143
2012/10/24,7,134
2012/10/24,8,178
2012/10/24,9,191
2012/10/24,10,164
2012/10/24,11,127
2012/10/24,12,96
2012/10/24,13,71
2012/10/24,14,73
2012/10/24,15,77
2012/10/24,16,73
2012/10/24,17,80
2012/10/24,18,94
2012/10/24,19,124
2012/10/24,20,166
2012/10/24,21,212
2012/10/24,22,195
2012/10/24,23,211
2012/10/31,0,6
2012/10/31,1,4
2012/10/31,2,65
2012/10/31,3,106
2012/10/31,4,83
2012/10/31,5,102
2012/10/31,6,95
2012/10/31,7,103
2012/10/31,8,119
2012/10/31,9,64
2012/10/31,10,56
2012/10/31,11,32
2012/10/31,12,23
2012/10/31,13,27
2012/10/31,14,31
2012/10/31,15,32
2012/10/31,16,28
2012/10/31,17,60
2012/10/31,18,97
2012/10/31,19,81
2012/10/31,20,107
2012/10/31,21,117
2012/10/31,22,134
2012/10/31,23,140
2012/11/7,0,174
2012/11/7,1,180
2012/11/7,2,169
2012/11/7,3,175
2012/11/7,4,146
2012/11/7,5,144
2012/11/7,6,148
2012/11/7,7,147
2012/11/7,8,136
2012/11/7,9,96
2012/11/7,10,62
2012/11/7,11,48
2012/11/7,12,33
2012/11/7,13,27
2012/11/7,14,26
2012/11/7,15,23
2012/11/7,16,25
2012/11/7,17,26
2012/11/7,18,23
2012/11/7,19,24
2012/11/7,20,24
2012/11/7,21,25
2012/11/7,22,24
2012/11/7,23,19
2012/11/14,0,12
2012/11/14,1,10
2012/11/14,2,9
2012/11/14,3,13
2012/11/14,4,22
2012/11/14,5,29
2012/11/14,6,35
2012/11/14,7,28
2012/11/14,8,27
2012/11/14,9,12
2012/11/14,10,22
2012/11/14,11,12
2012/11/14,12,12
2012/11/14,13,18
2012/11/14,14,10
2012/11/14,15,28
2012/11/14,16,32
2012/11/14,17,63
2012/11/14,18,103
2012/11/14,19,124
2012/11/14,20,124
2012/11/14,21,137
2012/11/14,22,144
2012/11/14,23,122
2012/11/21,0,260
2012/11/21,1,269
2012/11/21,2,252
2012/11/21,3,245
2012/11/21,4,275
2012/11/21,5,239
2012/11/21,6,242
2012/11/21,7,259
2012/11/21,8,233
2012/11/21,9,239
2012/11/21,10,244
2012/11/21,11,217
2012/11/21,12,201
2012/11/21,13,201
2012/11/21,14,149
2012/11/21,15,150
2012/11/21,16,154
2012/11/21,17,233
2012/11/21,18,268
2012/11/21,19,240
2012/11/21,20,265
2012/11/21,21,268
2012/11/21,22,272
2012/11/21,23,273
2012/11/28,0,47
2012/11/28,1,42
2012/11/28,2,32
2012/11/28,3,17
2012/11/28,4,13
2012/11/28,5,12
2012/11/28,6,13
2012/11/28,7,14
2012/11/28,8,15
2012/11/28,9,19
2012/11/28,10,19
2012/11/28,11,16
2012/11/28,12,17
2012/11/28,13,16
2012/11/28,14,17
2012/11/28,15,16
2012/11/28,16,16
2012/11/28,17,14
2012/11/28,18,17
2012/11/28,19,26
2012/11/28,20,71
2012/11/28,21,77
2012/11/28,22,171
2012/11/28,23,122
2012/12/5,0,101
2012/12/5,1,145
2012/12/5,2,104
2012/12/5,3,53
2012/12/5,4,40
2012/12/5,5,18
2012/12/5,6,18
2012/12/5,7,18
2012/12/5,8,19
2012/12/5,9,21
2012/12/5,10,15
2012/12/5,11,15
2012/12/5,12,14
2012/12/5,13,14
2012/12/5,14,15
2012/12/5,15,15
2012/12/5,16,14
2012/12/5,17,13
2012/12/5,18,14
2012/12/5,19,16
2012/12/5,20,28
2012/12/5,21,62
2012/12/5,22,86
2012/12/5,23,95
2012/12/12,0,176
2012/12/12,1,174
2012/12/12,2,175
2012/12/12,3,158
2012/12/12,4,150
2012/12/12,5,149
2012/12/12,6,144
2012/12/12,7,125
2012/12/12,8,126
2012/12/12,9,132
2012/12/12,10,137
2012/12/12,11,172
2012/12/12,12,168
2012/12/12,13,142
2012/12/12,14,139
2012/12/12,15,137
2012/12/12,16,157
2012/12/12,17,181
2012/12/12,18,204
2012/12/12,19,215
2012/12/12,20,261
2012/12/12,21,269
2012/12/12,22,253
2012/12/12,23,273
2012/12/19,0,249
2012/12/19,1,202
2012/12/19,2,180
2012/12/19,3,149
2012/12/19,4,135
2012/12/19,5,144
2012/12/19,6,136
2012/12/19,7,111
2012/12/19,8,157
2012/12/19,9,153
2012/12/19,10,154
2012/12/19,11,168
2012/12/19,12,177
2012/12/19,13,173
2012/12/19,14,173
2012/12/19,15,170
2012/12/19,16,178
2012/12/19,17,188
2012/12/19,18,179
2012/12/19,19,206
2012/12/19,20,203
2012/12/19,21,204
2012/12/19,22,177
2012/12/19,23,169
2013/1/2,0,44
2013/1/2,1,30
2013/1/2,2,22
2013/1/2,3,11
2013/1/2,4,12
2013/1/2,5,12
2013/1/2,6,11
2013/1/2,7,11
2013/1/2,8,11
2013/1/2,9,14
2013/1/2,10,13
2013/1/2,11,13
2013/1/2,12,13
2013/1/2,13,12
2013/1/2,14,13
2013/1/2,15,13
2013/1/2,16,13
2013/1/2,17,13
2013/1/2,18,14
2013/1/2,19,15
2013/1/2,20,13
2013/1/2,21,16
2013/1/2,22,15
2013/1/2,23,16
2013/1/9,0,67
2013/1/9,1,87
2013/1/9,2,77
2013/1/9,3,74
2013/1/9,4,60
2013/1/9,5,43
2013/1/9,6,95
2013/1/9,7,113
2013/1/9,8,143
2013/1/9,9,92
2013/1/9,10,66
2013/1/9,11,50
2013/1/9,12,58
2013/1/9,13,59
2013/1/9,14,60
2013/1/9,15,51
2013/1/9,16,44
2013/1/9,17,91
2013/1/9,18,83
2013/1/9,19,109
2013/1/9,20,110
2013/1/9,21,165
2013/1/9,22,164
2013/1/9,23,167
2013/1/16,0,323
2013/1/16,1,220
2013/1/16,3,104
2013/1/16,4,54
2013/1/16,5,50
2013/1/16,6,39
2013/1/16,7,163
2013/1/16,8,175
2013/1/16,9,128
2013/1/16,10,128
2013/1/16,11,118
2013/1/16,12,78
2013/1/16,13,69
2013/1/16,14,86
2013/1/16,15,85
2013/1/16,16,54
2013/1/16,17,67
2013/1/16,18,82
2013/1/16,19,79
2013/1/16,20,72
2013/1/16,21,57
2013/1/16,22,46
2013/1/16,23,49
2013/1/23,0,354
2013/1/23,1,308
2013/1/23,2,281
2013/1/23,3,282
2013/1/23,4,254
2013/1/23,5,248
2013/1/23,6,276
2013/1/23,7,243
2013/1/23,8,279
2013/1/23,9,275
2013/1/23,10,303
2013/1/23,11,293
2013/1/23,12,308
2013/1/23,13,331
2013/1/23,14,360
2013/1/23,15,331
2013/1/23,16,347
2013/1/23,17,327
2013/1/23,18,298
2013/1/23,19,287
2013/1/23,20,354
2013/1/23,21,296
2013/1/23,22,368
2013/1/23,23,268
2013/1/30,0,138
2013/1/30,1,130
2013/1/30,2,129
2013/1/30,3,127
2013/1/30,4,130
2013/1/30,5,148
2013/1/30,6,277
2013/1/30,7,274
2013/1/30,8,255
2013/1/30,9,254
2013/1/30,10,244
2013/1/30,11,247
2013/1/30,12,298
2013/1/30,13,294
2013/1/30,14,265
2013/1/30,15,285
2013/1/30,16,266
2013/1/30,17,291
2013/1/30,18,281
2013/1/30,19,302
2013/1/30,20,283
2013/1/30,21,285
2013/1/30,22,287
2013/1/30,23,288
2013/2/6,0,354
2013/2/6,1,222
2013/2/6,2,265
2013/2/6,3,422
2013/2/6,4,241
2013/2/6,5,379
2013/2/6,6,212
2013/2/6,7,204
2013/2/6,8,316
2013/2/6,9,204
2013/2/6,10,215
2013/2/6,11,206
2013/2/6,12,85
2013/2/6,13,57
2013/2/6,14,35
2013/2/6,15,35
2013/2/6,16,31
2013/2/6,17,19
2013/2/6,18,17
2013/2/6,19,15
2013/2/6,20,16
2013/2/6,21,17
2013/2/6,22,14
2013/2/6,23,9
2013/2/13,0,233
2013/2/13,1,213
2013/2/13,2,213
2013/2/13,3,208
2013/2/13,4,231
2013/2/13,5,196
2013/2/13,6,214
2013/2/13,7,327
2013/2/13,8,196
2013/2/13,9,216
2013/2/13,10,190
2013/2/13,11,209
2013/2/13,12,229
2013/2/13,13,224
2013/2/13,14,224
2013/2/13,15,195
2013/2/13,16,146
2013/2/13,17,153
2013/2/13,18,142
2013/2/13,19,161
2013/2/13,20,153
2013/2/13,21,155
2013/2/13,22,146
2013/2/13,23,267
2013/2/20,0,71
2013/2/20,1,78
2013/2/20,2,87
2013/2/20,3,75
2013/2/20,4,145
2013/2/20,5,143
2013/2/20,6,145
2013/2/20,7,145
2013/2/20,8,165
2013/2/20,9,134
2013/2/20,10,124
2013/2/20,11,109
2013/2/20,12,104
2013/2/20,13,100
2013/2/20,14,63
2013/2/20,15,66
2013/2/20,16,39
2013/2/20,17,58
2013/2/20,18,68
2013/2/20,19,56
2013/2/20,20,48
2013/2/20,21,53
2013/2/20,22,82
2013/2/20,23,51
2013/2/27,0,267
2013/2/27,1,283
2013/2/27,2,268
2013/2/27,3,256
2013/2/27,4,258
2013/2/27,5,294
2013/2/27,6,240
2013/2/27,7,270
2013/2/27,8,242
2013/2/27,9,214
2013/2/27,10,153
2013/2/27,11,99
2013/2/27,12,68
2013/2/27,13,44
2013/2/27,14,42
2013/2/27,15,59
2013/2/27,16,77
2013/2/27,17,77
2013/2/27,18,80
2013/2/27,19,142
2013/2/27,20,135
2013/2/27,21,173
2013/2/27,22,132
2013/2/27,23,296
2013/3/6,0,175
2013/3/6,1,192
2013/3/6,2,176
2013/3/6,3,159
2013/3/6,4,145
2013/3/6,5,134
2013/3/6,6,140
2013/3/6,7,131
2013/3/6,8,109
2013/3/6,9,75
2013/3/6,10,76
2013/3/6,11,68
2013/3/6,12,66
2013/3/6,13,141
2013/3/6,14,136
2013/3/6,15,128
2013/3/6,16,121
2013/3/6,17,130
2013/3/6,18,164
2013/3/6,20,171
2013/3/6,21,171
2013/3/6,22,181
2013/3/6,23,190
2013/3/13,0,156
2013/3/13,1,151
2013/3/13,2,94
2013/3/13,3,108
2013/3/13,4,97
2013/3/13,5,45
2013/3/13,6,29
2013/3/13,7,44
2013/3/13,8,36
2013/3/13,9,41
2013/3/13,10,30
2013/3/13,11,27
2013/3/13,12,19
2013/3/13,13,12
2013/3/13,14,43
2013/3/13,15,45
2013/3/13,16,28
2013/3/13,17,37
2013/3/13,18,53
2013/3/13,19,73
2013/3/13,20,67
2013/3/13,21,72
2013/3/13,22,107
2013/3/13,23,95
2013/3/20,0,87
2013/3/20,1,103
2013/3/20,2,71
2013/3/20,3,50
2013/3/20,4,56
2013/3/20,5,52
2013/3/20,6,139
2013/3/20,7,122
2013/3/20,8,118
2013/3/20,9,138
2013/3/20,10,126
2013/3/20,11,114
2013/3/20,12,83
2013/3/20,13,71
2013/3/20,14,63
2013/3/20,15,120
2013/3/20,16,136
2013/3/20,17,123
2013/3/20,18,121
2013/3/20,19,121
2013/3/20,20,111
2013/3/20,21,98
2013/3/20,22,93
2013/3/20,23,94
2013/3/27,0,156
2013/3/27,1,191
2013/3/27,2,158
2013/3/27,3,170
2013/3/27,4,167
2013/3/27,5,157
2013/3/27,6,158
2013/3/27,7,190
2013/3/27,8,208
2013/3/27,9,188
2013/3/27,10,181
2013/3/27,11,162
2013/3/27,12,131
2013/3/27,13,62
2013/3/27,14,53
2013/3/27,15,63
2013/3/27,16,56
2013/3/27,17,39
2013/3/27,18,35
2013/3/27,19,35
2013/3/27,20,32
2013/3/27,21,27
2013/3/27,22,12
2013/3/27,23,15
2013/4/3,0,115
2013/4/3,1,191
2013/4/3,2,183
2013/4/3,3,190
2013/4/3,4,190
2013/4/3,5,191
2013/4/3,6,190
2013/4/3,7,165
2013/4/3,8,110
2013/4/3,9,117
2013/4/3,10,124
2013/4/3,11,127
2013/4/3,12,134
2013/4/3,13,127
2013/4/3,14,119
2013/4/3,15,121
2013/4/3,16,103
2013/4/3,17,91
2013/4/3,18,88
2013/4/3,19,87
2013/4/3,20,89
2013/4/3,21,86
2013/4/3,22,80
2013/4/3,23,73
2013/4/10,0,14
2013/4/10,1,10
2013/4/10,2,7
2013/4/10,3,11
2013/4/10,4,8
2013/4/10,5,2
2013/4/10,6,13
2013/4/10,7,2
2013/4/10,8,10
2013/4/10,9,13
2013/4/10,10,22
2013/4/10,11,17
2013/4/10,12,14
2013/4/10,13,12
2013/4/10,14,17
2013/4/10,15,16
2013/4/10,16,19
2013/4/10,17,12
2013/4/10,18,12
2013/4/10,19,12
2013/4/10,20,11
2013/4/10,21,12
2013/4/10,22,7
2013/4/10,23,9
2013/4/17,0,116
2013/4/17,1,106
2013/4/17,2,99
2013/4/17,3,95
2013/4/17,4,106
2013/4/17,5,110
2013/4/17,6,107
2013/4/17,7,116
2013/4/17,8,142
2013/4/17,9,158
2013/4/17,10,102
2013/4/17,11,104
2013/4/17,12,106
2013/4/17,13,108
2013/4/17,14,115
2013/4/17,15,107
2013/4/17,16,110
2013/4/17,17,103
2013/4/17,18,101
2013/4/17,19,67
2013/4/17,20,68
2013/4/17,21,85
2013/4/17,22,103
2013/4/17,23,78
2013/4/24,0,158
2013/4/24,1,162
2013/4/24,2,176
2013/4/24,3,152
2013/4/24,4,177
2013/4/24,5,165
2013/4/24,6,165
2013/4/24,7,124
2013/4/24,8,128
2013/4/24,9,159
2013/4/24,10,133
2013/4/24,11,92
2013/4/24,12,52
2013/4/24,13,27
2013/4/24,14,18
2013/4/24,15,20
2013/4/24,16,5
2013/4/24,17,12
2013/4/24,18,21
2013/4/24,19,23
2013/4/24,20,66
2013/4/24,21,73
2013/4/24,22,70
2013/4/24,23,57
2013/5/1,0,83
2013/5/1,1,83
2013/5/1,2,91
2013/5/1,3,101
2013/5/1,4,141
2013/5/1,5,145
2013/5/1,6,138
2013/5/1,7,103
2013/5/1,8,80
2013/5/1,9,90
2013/5/1,10,75
2013/5/1,11,58
2013/5/1,12,52
2013/5/1,13,67
2013/5/1,14,51
2013/5/1,15,67
2013/5/1,16,75
2013/5/1,17,81
2013/5/1,18,77
2013/5/1,19,79
2013/5/1,20,77
2013/5/1,21,96
2013/5/1,22,95
2013/5/1,23,108
2013/5/8,0,117
2013/5/8,1,103
2013/5/8,2,101
2013/5/8,3,125
2013/5/8,4,89
2013/5/8,5,91
2013/5/8,6,108
2013/5/8,7,97
2013/5/8,8,121
2013/5/8,9,123
2013/5/8,10,137
2013/5/8,11,129
2013/5/8,12,130
2013/5/8,13,150
2013/5/8,14,158
2013/5/8,15,144
2013/5/8,16,135
2013/5/8,17,130
2013/5/8,18,128
2013/5/8,19,121
2013/5/8,20,118
2013/5/8,21,116
2013/5/8,22,91
2013/5/8,23,89
2013/5/15,0,70
2013/5/15,1,68
2013/5/15,2,76
2013/5/15,3,80
2013/5/15,4,84
2013/5/15,5,81
2013/5/15,6,86
2013/5/15,7,90
2013/5/15,8,95
2013/5/15,9,105
2013/5/15,10,101
2013/5/15,11,88
2013/5/15,12,83
2013/5/15,13,81
2013/5/15,14,85
2013/5/15,15,90
2013/5/15,16,84
2013/5/15,17,79
2013/5/15,18,79
2013/5/15,19,84
2013/5/15,20,86
2013/5/15,21,82
2013/5/15,22,82
2013/5/15,23,106
2013/5/22,0,62
2013/5/22,1,76
2013/5/22,2,80
2013/5/22,3,111
2013/5/22,4,88
2013/5/22,5,91
2013/5/22,6,110
2013/5/22,7,106
2013/5/22,8,92
2013/5/22,9,87
2013/5/22,10,83
2013/5/22,11,84
2013/5/22,12,78
2013/5/22,13,76
2013/5/22,14,56
2013/5/22,15,68
2013/5/22,16,67
2013/5/22,17,60
2013/5/22,18,63
2013/5/22,19,71
2013/5/22,20,68
2013/5/22,21,69
2013/5/22,22,67
2013/5/22,23,81
2013/5/29,0,49
2013/5/29,1,44
2013/5/29,2,34
2013/5/29,3,33
2013/5/29,4,31
2013/5/29,5,30
2013/5/29,6,28
2013/5/29,7,29
2013/5/29,8,35
2013/5/29,9,39
2013/5/29,10,38
2013/5/29,11,44
2013/5/29,12,35
2013/5/29,13,29
2013/5/29,14,25
2013/5/29,15,28
2013/5/29,16,27
2013/5/29,17,28
2013/5/29,18,28
2013/5/29,19,27
2013/5/29,20,52
2013/5/29,21,65
2013/5/29,22,69
2013/5/29,23,67
2013/6/5,0,70
2013/6/5,1,79
2013/6/5,2,86
2013/6/5,3,68
2013/6/5,4,80
2013/6/5,5,73
2013/6/5,6,112
2013/6/5,7,107
2013/6/5,8,101
2013/6/5,9,108
2013/6/5,10,112
2013/6/5,11,137
2013/6/5,12,129
2013/6/5,13,134
2013/6/5,14,133
2013/6/5,15,133
2013/6/5,16,120
2013/6/5,17,114
2013/6/5,18,94
2013/6/5,19,93
2013/6/5,20,91
2013/6/5,21,97
2013/6/5,22,95
2013/6/5,23,97
2013/6/12,0,73
2013/6/12,1,84
2013/6/12,2,81
2013/6/12,3,76
2013/6/12,4,91
2013/6/12,5,87
2013/6/12,6,87
2013/6/12,7,80
2013/6/12,8,93
2013/6/12,9,73
2013/6/12,10,76
2013/6/12,11,90
2013/6/12,12,101
2013/6/12,13,89
2013/6/12,14,105
2013/6/12,15,101
2013/6/12,16,93
2013/6/12,17,74
2013/6/12,18,75
2013/6/12,19,80
2013/6/12,20,94
2013/6/12,21,96
2013/6/12,22,96
2013/6/12,23,95
2013/6/19,0,113
2013/6/19,1,110
2013/6/19,2,104
2013/6/19,3,103
2013/6/19,4,106
2013/6/19,5,107
2013/6/19,6,142
2013/6/19,7,137
2013/6/19,8,120
2013/6/19,9,120
2013/6/19,10,74
2013/6/19,11,41
2013/6/19,12,35
2013/6/19,13,35
2013/6/19,14,10
2013/6/19,15,29
2013/6/19,16,-5
2013/6/19,17,12
2013/6/19,18,23
2013/6/19,19,41
2013/6/19,20,37
2013/6/19,21,35
2013/6/19,22,37
2013/6/19,23,81
2013/6/26,0,129
2013/6/26,1,126
2013/6/26,2,129
2013/6/26,3,103
2013/6/26,4,119
2013/6/26,5,125
2013/6/26,6,125
2013/6/26,7,135
2013/6/26,8,137
2013/6/26,9,143
2013/6/26,10,146
2013/6/26,11,146
2013/6/26,12,141
2013/6/26,13,200
2013/6/26,14,139
2013/6/26,15,136
2013/6/26,16,137
2013/6/26,17,174
2013/6/26,18,180
2013/6/26,19,178
2013/6/26,20,183
2013/6/26,21,184
2013/6/26,22,185
2013/6/26,23,122
2013/7/3,0,60
2013/7/3,1,35
2013/7/3,2,81
2013/7/3,3,73
2013/7/3,4,70
2013/7/3,5,67
2013/7/3,6,78
2013/7/3,7,76
2013/7/3,8,83
2013/7/3,9,48
2013/7/3,10,28
2013/7/3,11,37
2013/7/3,12,23
2013/7/3,13,31
2013/7/3,14,23
2013/7/3,15,24
2013/7/3,16,25
2013/7/3,17,18
2013/7/3,18,25
2013/7/3,19,28
2013/7/3,20,89
2013/7/3,21,80
2013/7/3,22,60
2013/7/3,23,94
2013/7/10,0,120
2013/7/10,1,121
2013/7/10,2,110
2013/7/10,3,103
2013/7/10,4,101
2013/7/10,5,85
2013/7/10,6,77
2013/7/10,7,63
2013/7/10,8,62
2013/7/10,9,69
2013/7/10,10,97
2013/7/10,11,65
2013/7/10,12,58
2013/7/10,13,46
2013/7/10,14,43
2013/7/10,15,36
2013/7/10,16,31
2013/7/10,17,68
2013/7/10,18,63
2013/7/10,19,62
2013/7/10,20,57
2013/7/10,21,59
2013/7/10,22,56
2013/7/10,23,56
2013/7/17,0,69
2013/7/17,1,66
2013/7/17,2,64
2013/7/17,3,69
2013/7/17,4,73
2013/7/17,5,62
2013/7/17,6,74
2013/7/17,7,65
2013/7/17,8,82
2013/7/17,9,96
2013/7/17,10,99
2013/7/17,11,94
2013/7/17,12,84
2013/7/17,13,58
2013/7/17,15,66
2013/7/17,16,62
2013/7/17,17,58
2013/7/17,18,48
2013/7/17,19,73
2013/7/17,20,84
2013/7/17,21,66
2013/7/17,22,89
2013/7/17,23,101
2013/7/24,0,49
2013/7/24,1,73
2013/7/24,2,75
2013/7/24,3,66
2013/7/24,4,90
2013/7/24,5,57
2013/7/24,6,76
2013/7/24,7,71
2013/7/24,8,51
2013/7/24,9,46
2013/7/24,10,39
2013/7/24,11,17
2013/7/24,12,8
2013/7/24,13,8
2013/7/24,14,15
2013/7/24,15,11
2013/7/24,16,11
2013/7/24,17,1
2013/7/24,18,1
2013/7/24,19,-3
2013/7/24,20,-3
2013/7/24,21,37
2013/7/24,22,26
2013/7/24,23,32
2013/7/31,0,56
2013/7/31,1,40
2013/7/31,2,51
2013/7/31,3,75
2013/7/31,4,56
2013/7/31,5,56
2013/7/31,6,68
2013/7/31,7,100
2013/7/31,8,101
2013/7/31,9,108
2013/7/31,10,100
2013/7/31,11,80
2013/7/31,12,72
2013/7/31,13,81
2013/7/31,14,73
2013/7/31,15,112
2013/7/31,16,111
2013/7/31,17,120
2013/7/31,18,109
2013/7/31,19,111
2013/7/31,20,53
2013/7/31,21,53
2013/7/31,22,67
2013/7/31,23,67
2013/8/7,0,128
2013/8/7,1,121
2013/8/7,2,83
2013/8/7,3,107
2013/8/7,4,112
2013/8/7,5,97
2013/8/7,6,111
2013/8/7,7,105
2013/8/7,8,127
2013/8/7,9,102
2013/8/7,10,99
2013/8/7,11,101
2013/8/7,12,75
2013/8/7,13,79
2013/8/7,14,87
2013/8/7,15,57
2013/8/7,16,37
2013/8/7,17,28
2013/8/7,18,28
2013/8/7,19,36
2013/8/7,20,39
2013/8/7,21,42
2013/8/7,22,17
2013/8/7,23,35
2013/8/14,0,69
2013/8/14,1,76
2013/8/14,2,84
2013/8/14,3,89
2013/8/14,4,91
2013/8/14,5,87
2013/8/14,6,97
2013/8/14,7,107
2013/8/14,8,90
2013/8/14,9,100
2013/8/14,10,97
2013/8/14,11,104
2013/8/14,12,102
2013/8/14,13,97
2013/8/14,14,106
2013/8/14,15,101
2013/8/14,16,111
2013/8/14,17,105
2013/8/14,18,109
2013/8/14,19,110
2013/8/14,20,117
2013/8/14,21,118
2013/8/14,22,117
2013/8/14,23,118
2013/8/21,1,100
2013/8/21,2,110
2013/8/21,3,97
2013/8/21,4,110
2013/8/21,5,121
2013/8/21,6,94
2013/8/21,7,111
2013/8/21,8,114
2013/8/21,9,117
2013/8/21,10,111
2013/8/21,11,111
2013/8/21,12,96
2013/8/21,13,85
2013/8/21,14,72
2013/8/21,15,66
2013/8/21,16,60
2013/8/21,17,48
2013/8/21,18,59
2013/8/21,19,61
2013/8/21,20,65
2013/8/21,21,64
2013/8/21,22,70
2013/8/21,23,70
2013/8/28,0,60
2013/8/28,1,68
2013/8/28,2,73
2013/8/28,3,74
2013/8/28,4,84
2013/8/28,5,85
2013/8/28,6,80
2013/8/28,7,50
2013/8/28,8,46
2013/8/28,9,90
2013/8/28,10,92
2013/8/28,11,97
2013/8/28,12,94
2013/8/28,13,94
2013/8/28,14,92
2013/8/28,15,90
2013/8/28,16,88
2013/8/28,17,95
2013/8/28,18,91
2013/8/28,19,92
2013/8/28,20,91
2013/8/28,21,91
2013/8/28,22,87
2013/8/28,23,85
2013/9/4,0,95
2013/9/4,1,94
2013/9/4,2,93
2013/9/4,3,94
2013/9/4,4,89
2013/9/4,5,78
2013/9/4,6,78
2013/9/4,7,83
2013/9/4,8,101
2013/9/4,9,113
2013/9/4,10,107
2013/9/4,11,109
2013/9/4,12,111
2013/9/4,13,90
2013/9/4,14,94
2013/9/4,15,98
2013/9/4,16,97
2013/9/4,17,97
2013/9/4,18,95
2013/9/4,19,95
2013/9/4,20,96
2013/9/4,21,85
2013/9/4,22,75
2013/9/4,23,73
2013/9/11,0,85
2013/9/11,1,93
2013/9/11,2,86
2013/9/11,3,78
2013/9/11,4,72
2013/9/11,5,78
2013/9/11,6,78
2013/9/11,7,72
2013/9/11,8,59
2013/9/11,9,63
2013/9/11,10,81
2013/9/11,11,102
2013/9/11,12,95
2013/9/11,13,89
2013/9/11,14,70
2013/9/11,15,74
2013/9/11,16,65
2013/9/11,17,70
2013/9/11,18,75
2013/9/11,19,94
2013/9/11,20,96
2013/9/11,21,95
2013/9/11,22,98
2013/9/11,23,100
2013/9/18,0,118
2013/9/18,1,102
2013/9/18,2,98
2013/9/18,3,93
2013/9/18,4,113
2013/9/18,5,98
2013/9/18,6,100
2013/9/18,7,126
2013/9/18,8,112
2013/9/18,9,130
2013/9/18,10,140
2013/9/18,11,119
2013/9/18,12,123
2013/9/18,13,120
2013/9/18,14,112
2013/9/18,15,110
2013/9/18,16,97
2013/9/18,17,85
2013/9/18,18,96
2013/9/18,19,95
2013/9/18,20,98
2013/9/18,21,85
2013/9/18,22,86
2013/9/18,23,81
2013/9/25,0,73
2013/9/25,1,109
2013/9/25,2,87
2013/9/25,3,164
2013/9/25,4,36
2013/9/25,5,60
2013/9/25,6,88
2013/9/25,7,86
2013/9/25,8,91
2013/9/25,9,72
2013/9/25,10,49
2013/9/25,11,37
2013/9/25,12,40
2013/9/25,13,42
2013/9/25,14,47
2013/9/25,15,81
2013/9/25,16,63
2013/9/25,17,69
2013/9/25,18,68
2013/9/25,19,66
2013/9/25,20,72
2013/9/25,21,120
2013/9/25,22,131
2013/9/25,23,127
2013/10/2,0,141
2013/10/2,1,170
2013/10/2,2,124
2013/10/2,3,103
2013/10/2,4,97
2013/10/2,5,89
2013/10/2,6,106
2013/10/2,7,88
2013/10/2,8,64
2013/10/2,9,41
2013/10/2,10,24
2013/10/2,11,23
2013/10/2,12,12
2013/10/2,13,15
2013/10/2,14,6
2013/10/2,15,12
2013/10/2,16,12
2013/10/2,17,19
2013/10/2,18,25
2013/10/2,19,29
2013/10/2,20,78
2013/10/2,21,107
2013/10/2,22,120
2013/10/2,23,110
2013/10/9,0,129
2013/10/9,1,143
2013/10/9,2,149
2013/10/9,3,156
2013/10/9,4,135
2013/10/9,5,134
2013/10/9,6,137
2013/10/9,7,218
2013/10/9,8,192
2013/10/9,9,200
2013/10/9,10,195
2013/10/9,11,188
2013/10/9,12,301
2013/10/9,13,253
2013/10/9,14,266
2013/10/9,15,261
2013/10/9,16,239
2013/10/9,17,206
2013/10/9,18,222
2013/10/9,19,302
2013/10/9,20,257
2013/10/9,21,304
2013/10/9,22,296
2013/10/9,23,297
2013/10/16,0,122
2013/10/16,1,131
2013/10/16,2,122
2013/10/16,3,125
2013/10/16,4,75
2013/10/16,5,76
2013/10/16,6,69
2013/10/16,7,85
2013/10/16,8,31
2013/10/16,9,34
2013/10/16,10,28
2013/10/16,11,14
2013/10/16,12,11
2013/10/16,13,21
2013/10/16,14,6
2013/10/16,15,16
2013/10/16,16,19
2013/10/16,17,11
2013/10/16,18,48
2013/10/16,19,61
2013/10/16,20,98
2013/10/16,21,96
2013/10/16,22,70
2013/10/16,23,105
2013/10/23,0,78
2013/10/23,1,126
2013/10/23,2,69
2013/10/23,3,95
2013/10/23,4,73
2013/10/23,5,41
2013/10/23,6,43
2013/10/23,7,86
2013/10/23,8,85
2013/10/23,9,94
2013/10/23,10,69
2013/10/23,11,38
2013/10/23,12,53
2013/10/23,13,32
2013/10/23,14,25
2013/10/23,15,25
2013/10/23,16,25
2013/10/23,17,25
2013/10/23,18,40
2013/10/23,19,86
2013/10/23,20,77
2013/10/23,21,60
2013/10/23,22,40
2013/10/23,23,44
2013/10/30,0,39
2013/10/30,1,43
2013/10/30,2,38
2013/10/30,3,26
2013/10/30,4,12
2013/10/30,5,16
2013/10/30,6,23
2013/10/30,7,14
2013/10/30,8,8
2013/10/30,9,13
2013/10/30,10,31
2013/10/30,11,36
2013/10/30,12,30
2013/10/30,13,52
2013/10/30,14,56
2013/10/30,15,47
2013/10/30,16,50
2013/10/30,17,41
2013/10/30,18,75
2013/10/30,19,85
2013/10/30,20,70
2013/10/30,21,80
2013/10/30,22,77
2013/10/30,23,108
2013/11/6,0,180
2013/11/6,1,187
2013/11/6,2,157
2013/11/6,3,147
2013/11/6,4,146
2013/11/6,5,145
2013/11/6,6,133
2013/11/6,7,133
2013/11/6,8,122
2013/11/6,9,111
2013/11/6,10,106
2013/11/6,11,138
2013/11/6,12,48
2013/11/6,13,30
2013/11/6,14,29
2013/11/6,15,29
2013/11/6,16,25
2013/11/6,17,18
2013/11/6,18,11
2013/11/6,19,10
2013/11/6,20,16
2013/11/6,21,14
2013/11/6,22,6
2013/11/6,23,5
2013/11/13,0,113
2013/11/13,1,123
2013/11/13,2,120
2013/11/13,3,106
2013/11/13,4,99
2013/11/13,5,101
2013/11/13,6,99
2013/11/13,7,94
2013/11/13,8,98
2013/11/13,9,122
2013/11/13,10,124
2013/11/13,11,139
2013/11/13,12,146
2013/11/13,13,142
2013/11/13,14,131
2013/11/13,15,129
2013/11/13,16,136
2013/11/13,17,150
2013/11/13,18,142
2013/11/13,19,157
2013/11/13,20,159
2013/11/13,21,160
2013/11/13,22,140
2013/11/13,23,134
2013/11/20,0,100
2013/11/20,1,92
2013/11/20,2,164
2013/11/20,3,90
2013/11/20,4,112
2013/11/20,5,87
2013/11/20,6,60
2013/11/20,7,77
2013/11/20,8,29
2013/11/20,9,41
2013/11/20,10,50
2013/11/20,11,18
2013/11/20,12,53
2013/11/20,13,27
2013/11/20,14,30
2013/11/20,15,41
2013/11/20,16,42
2013/11/20,17,51
2013/11/20,18,66
2013/11/20,19,122
2013/11/20,20,56
2013/11/20,21,131
2013/11/20,22,157
2013/11/20,23,148
2013/11/27,0,11
2013/11/27,1,3
2013/11/27,2,4
2013/11/27,3,8
2013/11/27,4,3
2013/11/27,5,1
2013/11/27,6,1
2013/11/27,7,0
2013/11/27,8,2
2013/11/27,9,5
2013/11/27,10,9
2013/11/27,11,7
2013/11/27,12,10
2013/11/27,13,9
2013/11/27,14,10
2013/11/27,15,10
2013/11/27,16,9
2013/11/27,17,9
2013/11/27,18,11
2013/11/27,19,15
2013/11/27,20,16
2013/11/27,21,13
2013/11/27,22,15
2013/11/27,23,16
2013/12/4,0,107
2013/12/4,1,156
2013/12/4,2,150
2013/12/4,3,99
2013/12/4,4,160
2013/12/4,5,160
2013/12/4,6,162
2013/12/4,7,150
2013/12/4,8,164
2013/12/4,9,127
2013/12/4,10,66
2013/12/4,11,51
2013/12/4,12,61
2013/12/4,13,45
2013/12/4,14,42
2013/12/4,15,32
2013/12/4,16,29
2013/12/4,17,78
2013/12/4,18,120
2013/12/4,19,121
2013/12/4,20,158
2013/12/4,21,177
2013/12/4,22,171
2013/12/4,23,166
2013/12/11,0,15
2013/12/11,1,15
2013/12/11,2,13
2013/12/11,3,10
2013/12/11,4,7
2013/12/11,5,25
2013/12/11,6,18
2013/12/11,7,19
2013/12/11,8,49
2013/12/11,9,56
2013/12/11,10,45
2013/12/11,11,37
2013/12/11,12,37
2013/12/11,13,32
2013/12/11,14,29
2013/12/11,15,27
2013/12/11,16,25
2013/12/11,17,23
2013/12/11,18,53
2013/12/11,19,61
2013/12/11,20,53
2013/12/11,21,62
2013/12/11,22,63
2013/12/11,23,75
2013/12/18,0,15
2013/12/18,1,14
2013/12/18,2,11
2013/12/18,3,10
2013/12/18,4,9
2013/12/18,5,11
2013/12/18,6,36
2013/12/18,7,49
2013/12/18,8,13
2013/12/18,9,29
2013/12/18,10,24
2013/12/18,11,26
2013/12/18,12,28
2013/12/18,13,50
2013/12/18,14,54
2013/12/18,15,52
2013/12/18,16,60
2013/12/18,17,67
2013/12/18,18,74
2013/12/18,19,82
2013/12/18,20,71
2013/12/18,21,94
2013/12/18,22,101
2013/12/18,23,94
2013/12/25,0,259
2013/12/25,1,194
2013/12/25,2,194
2013/12/25,3,173
2013/12/25,4,155
2013/12/25,5,141
2013/12/25,6,124
2013/12/25,7,111
2013/12/25,8,94
2013/12/25,9,126
2013/12/25,10,120
2013/12/25,11,97
2013/12/25,12,83
2013/12/25,13,72
2013/12/25,14,30
2013/12/25,15,20
2013/12/25,16,14
2013/12/25,17,13
2013/12/25,18,13
2013/12/25,19,27
2013/12/25,20,24
2013/12/25,21,24
2013/12/25,22,24
2013/12/25,23,24
2014/1/1,0,44
2014/1/1,1,42
2014/1/1,2,19
2014/1/1,3,18
2014/1/1,4,62
2014/1/1,5,43
2014/1/1,6,38
2014/1/1,7,39
2014/1/1,8,30
2014/1/1,9,38
2014/1/1,10,31
2014/1/1,11,27
2014/1/1,12,27
2014/1/1,13,23
2014/1/1,14,25
2014/1/1,15,24
2014/1/1,16,22
2014/1/1,17,22
2014/1/1,18,22
2014/1/1,19,88
2014/1/1,20,115
2014/1/1,21,97
2014/1/1,22,139
2014/1/1,23,141
2014/1/8,0,30
2014/1/8,1,25
2014/1/8,2,22
2014/1/8,3,19
2014/1/8,4,18
2014/1/8,5,42
2014/1/8,6,30
2014/1/8,7,25
2014/1/8,8,38
2014/1/8,9,23
2014/1/8,10,26
2014/1/8,11,37
2014/1/8,12,33
2014/1/8,13,35
2014/1/8,14,37
2014/1/8,15,37
2014/1/8,16,34
2014/1/8,17,30
2014/1/8,18,28
2014/1/8,19,39
2014/1/8,20,20
2014/1/8,21,22
2014/1/8,22,21
2014/1/8,23,68
2014/1/15,0,182
2014/1/15,1,205
2014/1/15,2,166
2014/1/15,3,104
2014/1/15,4,86
2014/1/15,5,84
2014/1/15,6,99
2014/1/15,7,53
2014/1/15,8,43
2014/1/15,9,38
2014/1/15,10,50
2014/1/15,11,40
2014/1/15,12,64
2014/1/15,13,57
2014/1/15,14,49
2014/1/15,15,47
2014/1/15,16,47
2014/1/15,17,68
2014/1/15,18,99
2014/1/15,19,106
2014/1/15,20,136
2014/1/15,21,162
2014/1/15,22,161
2014/1/15,23,191
2014/1/22,0,98
2014/1/22,1,96
2014/1/22,2,111
2014/1/22,3,99
2014/1/22,4,81
2014/1/22,5,75
2014/1/22,6,83
2014/1/22,7,73
2014/1/22,8,63
2014/1/22,9,70
2014/1/22,10,48
2014/1/22,11,47
2014/1/22,12,60
2014/1/22,13,64
2014/1/22,14,58
2014/1/22,15,63
2014/1/22,18,71
2014/1/22,19,117
2014/1/22,20,99
2014/1/22,21,129
2014/1/22,22,108
2014/1/22,23,138
2014/1/29,0,132
2014/1/29,1,288
2014/1/29,2,290
2014/1/29,3,250
2014/1/29,4,205
2014/1/29,5,215
2014/1/29,6,240
2014/1/29,7,240
2014/1/29,8,272
2014/1/29,9,271
2014/1/29,10,288
2014/1/29,11,257
2014/1/29,12,257
2014/1/29,13,236
2014/1/29,14,238
2014/1/29,15,234
2014/1/29,16,229
2014/1/29,17,231
2014/1/29,18,266
2014/1/29,19,327
2014/1/29,20,321
2014/1/29,21,332
2014/1/29,22,257
2014/1/29,23,307
2014/2/5,0,60
2014/2/5,1,43
2014/2/5,2,20
2014/2/5,3,37
2014/2/5,4,34
2014/2/5,5,35
2014/2/5,6,45
2014/2/5,7,47
2014/2/5,8,47
2014/2/5,9,24
2014/2/5,10,36
2014/2/5,11,35
2014/2/5,12,42
2014/2/5,13,67
2014/2/5,14,80
2014/2/5,15,85
2014/2/5,16,87
2014/2/5,17,93
2014/2/5,18,90
2014/2/5,19,101
2014/2/5,20,95
2014/2/5,21,92
2014/2/5,22,89
2014/2/5,23,106
2014/2/12,0,174
2014/2/12,1,151
2014/2/12,2,116
2014/2/12,3,161
2014/2/12,4,133
2014/2/12,5,68
2014/2/12,6,48
2014/2/12,7,38
2014/2/12,8,34
2014/2/12,9,17
2014/2/12,10,28
2014/2/12,11,17
2014/2/12,12,27
2014/2/12,13,33
2014/2/12,14,47
2014/2/12,15,48
2014/2/12,16,55
2014/2/12,17,58
2014/2/12,18,64
2014/2/12,19,108
2014/2/12,20,107
2014/2/12,21,74
2014/2/12,22,61
2014/2/12,23,49
2014/2/19,0,113
2014/2/19,1,119
2014/2/19,2,109
2014/2/19,3,163
2014/2/19,4,112
2014/2/19,5,122
2014/2/19,6,108
2014/2/19,7,103
2014/2/19,8,174
2014/2/19,9,144
2014/2/19,10,73
2014/2/19,11,52
2014/2/19,12,48
2014/2/19,13,55
2014/2/19,14,60
2014/2/19,15,52
2014/2/19,16,53
2014/2/19,17,60
2014/2/19,18,84
2014/2/19,19,97
2014/2/19,20,99
2014/2/19,21,81
2014/2/19,22,117
2014/2/19,23,90
2014/2/26,0,266
2014/2/26,1,282
2014/2/26,2,299
2014/2/26,3,274
2014/2/26,4,263
2014/2/26,5,256
2014/2/26,6,233
2014/2/26,7,248
2014/2/26,8,256
2014/2/26,9,286
2014/2/26,10,261
2014/2/26,11,259
2014/2/26,12,261
2014/2/26,13,256
2014/2/26,14,166
2014/2/26,15,219
2014/2/26,16,207
2014/2/26,17,158
2014/2/26,18,159
2014/2/26,19,111
2014/2/26,20,144
2014/2/26,21,213
2014/2/26,22,222
2014/2/26,23,217
2014/3/5,0,15
2014/3/5,1,12
2014/3/5,2,12
2014/3/5,3,13
2014/3/5,4,53
2014/3/5,5,49
2014/3/5,6,71
2014/3/5,7,32
2014/3/5,8,30
2014/3/5,9,26
2014/3/5,10,24
2014/3/5,11,34
2014/3/5,12,41
2014/3/5,13,46
2014/3/5,14,55
2014/3/5,15,53
2014/3/5,16,53
2014/3/5,17,58
2014/3/5,18,58
2014/3/5,19,63
2014/3/5,20,69
2014/3/5,21,37
2014/3/5,22,27
2014/3/5,23,25
2014/3/12,0,50
2014/3/12,1,64
2014/3/12,2,38
2014/3/12,3,70
2014/3/12,4,53
2014/3/12,5,54
2014/3/12,6,29
2014/3/12,7,26
2014/3/12,8,21
2014/3/12,9,18
2014/3/12,10,20
2014/3/12,11,17
2014/3/12,12,25
2014/3/12,13,24
2014/3/12,14,35
2014/3/12,15,31
2014/3/12,16,23
2014/3/12,17,32
2014/3/12,18,38
2014/3/12,19,55
2014/3/12,20,50
2014/3/12,21,50
2014/3/12,22,50
2014/3/12,23,47
2014/3/19,0,53
2014/3/19,1,52
2014/3/19,2,66
2014/3/19,3,61
2014/3/19,4,86
2014/3/19,5,79
2014/3/19,6,92
2014/3/19,7,104
2014/3/19,8,87
2014/3/19,9,103
2014/3/19,10,121
2014/3/19,11,101
2014/3/19,12,101
2014/3/19,13,102
2014/3/19,14,96
2014/3/19,15,114
2014/3/19,16,133
2014/3/19,17,137
2014/3/19,18,123
2014/3/19,19,114
2014/3/19,20,102
2014/3/19,21,26
2014/3/19,22,23
2014/3/19,23,21
2014/3/26,0,131
2014/3/26,1,119
2014/3/26,2,102
2014/3/26,3,87
2014/3/26,4,94
2014/3/26,5,96
2014/3/26,6,100
2014/3/26,7,114
2014/3/26,8,139
2014/3/26,9,157
2014/3/26,10,137
2014/3/26,11,100
2014/3/26,12,123
2014/3/26,13,112
2014/3/26,14,84
2014/3/26,15,84
2014/3/26,16,71
2014/3/26,17,69
2014/3/26,18,75
2014/3/26,19,84
2014/3/26,20,104
2014/3/26,21,118
2014/3/26,22,143
2014/3/26,23,164
2014/4/2,0,95
2014/4/2,1,115
2014/4/2,2,124
2014/4/2,3,117
2014/4/2,4,120
2014/4/2,5,122
2014/4/2,6,134
2014/4/2,7,134
2014/4/2,8,125
2014/4/2,9,126
2014/4/2,10,72
2014/4/2,11,72
2014/4/2,12,51
2014/4/2,13,47
2014/4/2,14,108
2014/4/2,15,87
2014/4/2,16,97
2014/4/2,17,99
2014/4/2,18,103
2014/4/2,19,107
2014/4/2,20,88
2014/4/2,21,113
2014/4/2,22,113
2014/4/2,23,102
2014/4/9,0,113
2014/4/9,1,105
2014/4/9,2,103
2014/4/9,3,100
2014/4/9,4,99
2014/4/9,5,108
2014/4/9,6,132
2014/4/9,7,122
2014/4/9,8,135
2014/4/9,9,122
2014/4/9,10,147
2014/4/9,11,112
2014/4/9,12,56
2014/4/9,13,48
2014/4/9,14,63
2014/4/9,15,49
2014/4/9,16,54
2014/4/9,17,51
2014/4/9,18,36
2014/4/9,19,91
2014/4/9,20,84
2014/4/9,21,79
2014/4/9,22,87
2014/4/9,23,90
2014/4/16,0,91
2014/4/16,1,93
2014/4/16,2,94
2014/4/16,3,73
2014/4/16,4,90
2014/4/16,5,106
2014/4/16,6,99
2014/4/16,7,107
2014/4/16,8,115
2014/4/16,9,126
2014/4/16,10,60
2014/4/16,11,55
2014/4/16,12,63
2014/4/16,13,45
2014/4/16,14,59
2014/4/16,15,53
2014/4/16,16,47
2014/4/16,17,67
2014/4/16,18,44
2014/4/16,19,52
2014/4/16,20,60
2014/4/16,21,91
2014/4/16,22,112
2014/4/16,23,111
2014/4/23,0,107
2014/4/23,1,126
2014/4/23,2,128
2014/4/23,3,123
2014/4/23,4,130
2014/4/23,5,135
2014/4/23,6,145
2014/4/23,7,150
2014/4/23,8,150
2014/4/23,9,149
2014/4/23,10,159
2014/4/23,11,157
2014/4/23,12,150
2014/4/23,13,150
2014/4/23,14,145
2014/4/23,15,132
2014/4/23,16,104
2014/4/23,17,119
2014/4/23,18,117
2014/4/23,19,124
2014/4/23,20,110
2014/4/23,21,142
2014/4/23,22,138
2014/4/23,23,139
2014/4/30,0,145
2014/4/30,1,137
2014/4/30,2,137
2014/4/30,3,148
2014/4/30,4,149
2014/4/30,5,147
2014/4/30,6,152
2014/4/30,7,138
2014/4/30,8,166
2014/4/30,9,183
2014/4/30,10,172
2014/4/30,11,167
2014/4/30,12,126
2014/4/30,13,131
2014/4/30,14,123
2014/4/30,15,118
2014/4/30,16,116
2014/4/30,17,111
2014/4/30,18,88
2014/4/30,19,119
2014/4/30,20,128
2014/4/30,21,126
2014/4/30,22,119
2014/4/30,23,126
2014/5/7,0,71
2014/5/7,1,90
2014/5/7,2,95
2014/5/7,3,102
2014/5/7,4,92
2014/5/7,5,91
2014/5/7,6,98
2014/5/7,7,86
2014/5/7,8,65
2014/5/7,9,57
2014/5/7,10,58
2014/5/7,11,57
2014/5/7,12,52
2014/5/7,13,51
2014/5/7,14,60
2014/5/7,15,62
2014/5/7,16,46
2014/5/7,17,45
2014/5/7,18,42
2014/5/7,19,57
2014/5/7,20,52
2014/5/7,21,63
2014/5/7,22,73
2014/5/7,23,109
2014/5/14,0,37
2014/5/14,1,33
2014/5/14,2,39
2014/5/14,3,37
2014/5/14,4,33
2014/5/14,5,34
2014/5/14,6,35
2014/5/14,7,35
2014/5/14,8,40
2014/5/14,9,45
2014/5/14,10,45
2014/5/14,11,44
2014/5/14,12,47
2014/5/14,13,40
2014/5/14,14,40
2014/5/14,15,39
2014/5/14,16,62
2014/5/14,17,58
2014/5/14,18,53
2014/5/14,19,68
2014/5/14,20,137
2014/5/14,21,60
2014/5/14,22,57
2014/5/14,23,152
2014/5/21,0,88
2014/5/21,1,111
2014/5/21,2,114
2014/5/21,3,95
2014/5/21,4,112
2014/5/21,5,115
2014/5/21,6,119
2014/5/21,7,117
2014/5/21,8,98
2014/5/21,9,103
2014/5/21,10,121
2014/5/21,11,109
2014/5/21,12,95
2014/5/21,13,96
2014/5/21,14,100
2014/5/21,15,103
2014/5/21,16,103
2014/5/21,17,100
2014/5/21,18,98
2014/5/21,19,119
2014/5/21,20,96
2014/5/21,21,100
2014/5/21,22,105
2014/5/21,23,105
2014/5/28,0,52
2014/5/28,1,36
2014/5/28,2,45
2014/5/28,3,69
2014/5/28,4,93
2014/5/28,5,91
2014/5/28,6,112
2014/5/28,7,97
2014/5/28,8,86
2014/5/28,9,74
2014/5/28,10,76
2014/5/28,11,54
2014/5/28,12,63
2014/5/28,13,61
2014/5/28,14,63
2014/5/28,15,58
2014/5/28,16,53
2014/5/28,17,52
2014/5/28,18,47
2014/5/28,19,47
2014/5/28,20,75
2014/5/28,21,75
2014/5/28,22,74
2014/5/28,23,53
2014/6/4,0,106
2014/6/4,1,92
2014/6/4,2,89
2014/6/4,3,79
2014/6/4,4,110
2014/6/4,5,94
2014/6/4,6,98
2014/6/4,7,95
2014/6/4,8,95
2014/6/4,9,83
2014/6/4,10,80
2014/6/4,11,77
2014/6/4,12,58
2014/6/4,13,58
2014/6/4,14,59
2014/6/4,15,72
2014/6/4,16,69
2014/6/4,17,74
2014/6/4,18,75
2014/6/4,19,75
2014/6/4,20,84
2014/6/4,21,79
2014/6/4,22,42
2014/6/4,23,68
2014/6/11,0,96
2014/6/11,1,95
2014/6/11,2,84
2014/6/11,3,108
2014/6/11,4,78
2014/6/11,5,59
2014/6/11,6,66
2014/6/11,7,70
2014/6/11,8,68
2014/6/11,9,46
2014/6/11,10,62
2014/6/11,11,57
2014/6/11,12,55
2014/6/11,13,36
2014/6/11,14,40
2014/6/11,15,46
2014/6/11,16,36
2014/6/11,17,43
2014/6/11,18,53
2014/6/11,19,43
2014/6/11,20,51
2014/6/11,21,72
2014/6/11,22,78
2014/6/11,23,63
2014/6/18,0,87
2014/6/18,1,68
2014/6/18,2,85
2014/6/18,3,85
2014/6/18,4,94
2014/6/18,5,66
2014/6/18,6,98
2014/6/18,7,61
2014/6/18,8,66
2014/6/18,9,86
2014/6/18,10,109
2014/6/18,11,84
2014/6/18,12,75
2014/6/18,13,60
2014/6/18,15,93
2014/6/18,18,123
2014/6/18,19,141
2014/6/18,20,134
2014/6/18,21,159
2014/6/18,22,157
2014/6/18,23,126
2014/6/25,0,101
2014/6/25,1,102
2014/6/25,2,104
2014/6/25,3,110
2014/6/25,4,114
2014/6/25,5,96
2014/6/25,6,95
2014/6/25,7,94
2014/6/25,8,116
2014/6/25,9,118
2014/6/25,10,117
2014/6/25,11,117
2014/6/25,12,133
2014/6/25,13,129
2014/6/25,14,131
2014/6/25,15,146
2014/6/25,16,126
2014/6/25,17,128
2014/6/25,18,124
2014/6/25,19,124
2014/6/25,20,124
2014/6/25,21,117
2014/6/25,22,118
2014/6/25,23,116
2014/7/2,0,43
2014/7/2,1,44
2014/7/2,2,87
2014/7/2,3,87
2014/7/2,4,87
2014/7/2,5,78
2014/7/2,6,92
2014/7/2,7,89
2014/7/2,8,87
2014/7/2,9,88
2014/7/2,10,108
2014/7/2,11,113
2014/7/2,12,117
2014/7/2,13,109
2014/7/2,14,109
2014/7/2,15,108
2014/7/2,16,106
2014/7/2,17,106
2014/7/2,18,120
2014/7/2,19,104
2014/7/2,20,100
2014/7/2,21,100
2014/7/2,22,104
2014/7/2,23,104
2014/7/9,0,110
2014/7/9,1,89
2014/7/9,2,60
2014/7/9,3,63
2014/7/9,4,65
2014/7/9,5,52
2014/7/9,6,48
2014/7/9,7,32
2014/7/9,8,29
2014/7/9,9,31
2014/7/9,10,41
2014/7/9,11,22
2014/7/9,12,8
2014/7/9,13,8
2014/7/9,14,12
2014/7/9,15,10
2014/7/9,16,17
2014/7/9,17,28
2014/7/9,18,12
2014/7/9,19,23
2014/7/9,20,31
2014/7/9,21,28
2014/7/9,22,27
2014/7/9,23,32
2014/7/16,0,91
2014/7/16,1,94
2014/7/16,2,99
2014/7/16,3,106
2014/7/16,4,109
2014/7/16,5,109
2014/7/16,6,108
2014/7/16,7,103
2014/7/16,8,110
2014/7/16,9,121
2014/7/16,10,105
2014/7/16,11,123
2014/7/16,12,83
2014/7/16,13,110
2014/7/16,14,100
2014/7/16,15,111
2014/7/16,16,111
2014/7/16,17,94
2014/7/16,18,85
2014/7/16,19,85
2014/7/16,20,96
2014/7/16,21,89
2014/7/16,22,104
2014/7/16,23,90
2014/7/23,0,27
2014/7/23,1,30
2014/7/23,2,30
2014/7/23,3,26
2014/7/23,4,61
2014/7/23,5,73
2014/7/23,6,72
2014/7/23,7,47
2014/7/23,8,81
2014/7/23,9,59
2014/7/23,10,41
2014/7/23,11,39
2014/7/23,12,38
2014/7/23,13,43
2014/7/23,14,39
2014/7/23,15,13
2014/7/23,16,16
2014/7/23,17,21
2014/7/23,18,22
2014/7/23,19,44
2014/7/23,20,49
2014/7/23,21,60
2014/7/23,22,78
2014/7/23,23,95
2014/7/30,0,117
2014/7/30,1,116
2014/7/30,2,57
2014/7/30,3,82
2014/7/30,4,119
2014/7/30,5,105
2014/7/30,6,103
2014/7/30,7,97
2014/7/30,8,118
2014/7/30,9,115
2014/7/30,10,108
2014/7/30,11,112
2014/7/30,12,114
2014/7/30,13,102
2014/7/30,14,126
2014/7/30,15,124
2014/7/30,16,122
2014/7/30,17,90
2014/7/30,18,105
2014/7/30,19,107
2014/7/30,20,108
2014/7/30,21,105
2014/7/30,22,105
2014/7/30,23,112
2014/8/6,0,104
2014/8/6,1,95
2014/8/6,2,90
2014/8/6,3,125
2014/8/6,4,89
2014/8/6,5,81
2014/8/6,6,67
2014/8/6,7,58
2014/8/6,8,43
2014/8/6,9,34
2014/8/6,10,28
2014/8/6,11,11
2014/8/6,12,7
2014/8/6,13,5
2014/8/6,14,0
2014/8/6,15,-1
2014/8/6,16,9
2014/8/6,17,9
2014/8/6,18,5
2014/8/6,19,37
2014/8/6,20,67
2014/8/6,21,79
2014/8/6,22,85
2014/8/6,23,79
2014/8/13,0,76
2014/8/13,1,45
2014/8/13,2,64
2014/8/13,3,52
2014/8/13,4,53
2014/8/13,5,63
2014/8/13,6,50
2014/8/13,7,51
2014/8/13,8,65
2014/8/13,9,59
2014/8/13,10,31
2014/8/13,11,37
2014/8/13,12,26
2014/8/13,13,10
2014/8/13,14,26
2014/8/13,15,61
2014/8/13,16,61
2014/8/13,17,70
2014/8/13,18,66
2014/8/13,19,74
2014/8/13,20,76
2014/8/13,21,73
2014/8/13,22,68
2014/8/13,23,81
2014/8/20,0,77
2014/8/20,1,76
2014/8/20,2,84
2014/8/20,3,86
2014/8/20,4,88
2014/8/20,5,91
2014/8/20,6,95
2014/8/20,7,102
2014/8/20,8,97
2014/8/20,9,100
2014/8/20,10,105
2014/8/20,11,89
2014/8/20,12,78
2014/8/20,13,68
2014/8/20,14,63
2014/8/20,15,59
2014/8/27,0,64
2014/8/27,1,66
2014/8/27,2,68
2014/8/27,3,61
2014/8/27,4,64
2014/8/27,5,82
2014/8/27,6,86
2014/8/27,7,57
2014/8/27,8,43
2014/8/27,9,36
2014/8/27,10,41
2014/8/27,11,22
2014/8/27,12,27
2014/8/27,13,29
2014/8/27,14,34
2014/8/27,15,43
2014/8/27,16,50
2014/8/27,17,46
2014/8/27,18,41
2014/8/27,19,45
2014/8/27,20,74
2014/8/27,21,76
2014/8/27,22,80
2014/8/27,23,65
2014/9/3,0,118
2014/9/3,1,84
2014/9/3,2,86
2014/9/3,3,105
2014/9/3,4,95
2014/9/3,5,83
2014/9/3,6,74
2014/9/3,7,54
2014/9/3,8,51
2014/9/3,9,50
2014/9/3,10,49
2014/9/3,11,59
2014/9/3,12,56
2014/9/3,13,53
2014/9/3,14,39
2014/9/3,15,42
2014/9/3,16,36
2014/9/3,17,40
2014/9/3,18,57
2014/9/3,19,61
2014/9/3,20,65
2014/9/3,21,74
2014/9/3,22,86
2014/9/3,23,92
2014/9/10,0,98
2014/9/10,1,92
2014/9/10,2,93
2014/9/10,3,100
2014/9/10,4,99
2014/9/10,5,105
2014/9/10,6,108
2014/9/10,7,101
2014/9/10,8,103
2014/9/10,9,103
2014/9/10,10,109
2014/9/10,11,102
2014/9/10,12,110
2014/9/10,13,86
2014/9/10,14,78
2014/9/10,15,85
2014/9/10,16,84
2014/9/10,17,78
2014/9/10,18,79
2014/9/10,19,95
2014/9/10,20,97
2014/9/10,21,94
2014/9/10,22,99
2014/9/10,23,99
2014/9/17,0,76
2014/9/17,1,71
2014/9/17,2,89
2014/9/17,3,73
2014/9/17,4,103
2014/9/17,5,88
2014/9/17,6,68
2014/9/17,7,95
2014/9/17,8,68
2014/9/17,9,86
2014/9/17,10,78
2014/9/17,11,86
2014/9/17,12,102
2014/9/17,13,97
2014/9/17,14,87
2014/9/17,15,103
2014/9/17,16,87
2014/9/17,17,79
2014/9/17,18,76
2014/9/17,19,96
2014/9/17,20,80
2014/9/17,21,99
2014/9/17,22,128
2014/9/17,23,101
2014/9/24,0,101
2014/9/24,1,89
2014/9/24,2,68
2014/9/24,3,56
2014/9/24,4,38
2014/9/24,5,110
2014/9/24,6,109
2014/9/24,7,98
2014/9/24,8,87
2014/9/24,9,95
2014/9/24,10,94
2014/9/24,11,111
2014/9/24,12,101
2014/9/24,13,87
2014/9/24,14,116
2014/9/24,15,108
2014/9/24,16,86
2014/9/24,17,110
2014/9/24,18,109
2014/9/24,19,109
2014/9/24,20,98
2014/9/24,21,104
2014/9/24,22,133
2014/9/24,23,111
2014/10/1,0,104
2014/10/1,1,100
2014/10/1,2,85
2014/10/1,3,80
2014/10/1,4,81
2014/10/1,5,82
2014/10/1,6,100
2014/10/1,7,81
2014/10/1,8,97
2014/10/1,9,115
2014/10/1,10,121
2014/10/1,11,84
2014/10/1,12,102
2014/10/1,13,126
2014/10/1,14,93
2014/10/1,15,89
2014/10/1,16,78
2014/10/1,17,50
2014/10/1,18,27
2014/10/1,19,76
2014/10/1,20,45
2014/10/1,21,60
2014/10/1,22,65
2014/10/1,23,61
2014/10/8,0,266
2014/10/8,1,266
2014/10/8,2,268
2014/10/8,3,160
2014/10/8,4,212
2014/10/8,5,141
2014/10/8,6,197
2014/10/8,7,212
2014/10/8,8,198
2014/10/8,9,172
2014/10/8,10,244
2014/10/8,11,241
2014/10/8,12,271
2014/10/8,13,271
2014/10/8,14,291
2014/10/8,15,275
2014/10/8,16,289
2014/10/8,17,339
2014/10/8,18,316
2014/10/8,19,301
2014/10/8,20,300
2014/10/8,21,308
2014/10/8,22,273
2014/10/8,23,279
2014/10/15,0,175
2014/10/15,1,168
2014/10/15,2,164
2014/10/15,3,112
2014/10/15,4,111
2014/10/15,5,109
2014/10/15,6,106
2014/10/15,7,83
2014/10/15,8,90
2014/10/15,9,98
2014/10/15,10,28
2014/10/15,11,25
2014/10/15,12,13
2014/10/15,13,8
2014/10/15,14,4
2014/10/15,15,4
2014/10/15,16,9
2014/10/15,17,0
2014/10/15,18,2
2014/10/15,19,2
2014/10/15,20,10
2014/10/15,21,15
2014/10/15,22,72
2014/10/15,23,94
2014/10/22,0,124
2014/10/22,1,123
2014/10/22,2,126
2014/10/22,3,122
2014/10/22,4,119
2014/10/22,5,87
2014/10/22,6,83
2014/10/22,7,84
2014/10/22,8,79
2014/10/22,9,86
2014/10/22,10,123
2014/10/22,11,136
2014/10/22,12,146
2014/10/22,13,176
2014/10/22,14,184
2014/10/22,15,173
2014/10/22,16,170
2014/10/22,17,158
2014/10/22,18,156
2014/10/22,19,155
2014/10/22,20,164
2014/10/22,21,165
2014/10/22,22,167
2014/10/22,23,167
2014/10/29,0,138
2014/10/29,1,140
2014/10/29,2,135
2014/10/29,3,153
2014/10/29,4,136
2014/10/29,5,163
2014/10/29,6,121
2014/10/29,7,106
2014/10/29,8,57
2014/10/29,9,68
2014/10/29,10,82
2014/10/29,11,113
2014/10/29,12,110
2014/10/29,13,107
2014/10/29,14,113
2014/10/29,15,119
2014/10/29,16,126
2014/10/29,17,137
2014/10/29,18,142
2014/10/29,19,146
2014/10/29,20,144
2014/10/29,21,163
2014/10/29,22,130
2014/10/29,23,155
2014/11/5,0,177
2014/11/5,1,179
2014/11/5,2,153
2014/11/5,3,163
2014/11/5,4,143
2014/11/5,5,129
2014/11/5,6,137
2014/11/5,7,135
2014/11/5,8,113
2014/11/5,9,94
2014/11/5,10,116
2014/11/5,11,58
2014/11/5,12,31
2014/11/5,13,22
2014/11/5,14,15
2014/11/5,15,14
2014/11/5,16,8
2014/11/5,17,7
2014/11/5,18,3
2014/11/5,19,18
2014/11/5,20,58
2014/11/5,21,48
2014/11/5,22,37
2014/11/5,23,60
2014/11/12,0,8
2014/11/12,1,8
2014/11/12,2,6
2014/11/12,3,5
2014/11/12,4,2
2014/11/12,5,2
2014/11/12,6,2
2014/11/12,7,2
2014/11/12,8,3
2014/11/12,9,4
2014/11/12,10,6
2014/11/12,11,7
2014/11/12,12,7
2014/11/12,13,8
2014/11/12,14,9
2014/11/12,15,9
2014/11/12,16,9
2014/11/12,17,9
2014/11/12,18,10
2014/11/12,19,10
2014/11/12,20,7
2014/11/12,21,11
2014/11/12,22,26
2014/11/12,23,26
2014/11/19,0,193
2014/11/19,1,195
2014/11/19,2,190
2014/11/19,3,193
2014/11/19,4,201
2014/11/19,5,195
2014/11/19,6,185
2014/11/19,7,185
2014/11/19,8,177
2014/11/19,9,191
2014/11/19,10,188
2014/11/19,11,178
2014/11/19,12,177
2014/11/19,13,181
2014/11/19,14,183
2014/11/19,15,156
2014/11/19,16,212
2014/11/19,17,208
2014/11/19,18,237
2014/11/19,19,237
2014/11/19,20,230
2014/11/19,21,250
2014/11/19,22,249
2014/11/19,23,252
2014/11/26,0,239
2014/11/26,1,271
2014/11/26,2,256
2014/11/26,3,240
2014/11/26,4,238
2014/11/26,5,244
2014/11/26,6,219
2014/11/26,7,221
2014/11/26,8,231
2014/11/26,9,245
2014/11/26,10,231
2014/11/26,11,244
2014/11/26,12,231
2014/11/26,13,229
2014/11/26,14,196
2014/11/26,15,228
2014/11/26,16,231
2014/11/26,17,233
2014/11/26,18,207
2014/11/26,19,203
2014/11/26,20,233
2014/11/26,21,247
2014/11/26,22,252
2014/11/26,23,252
2014/12/3,0,87
2014/12/3,1,85
2014/12/3,2,81
2014/12/3,3,42
2014/12/3,4,21
2014/12/3,5,20
2014/12/3,6,21
2014/12/3,7,16
2014/12/3,8,19
2014/12/3,9,22
2014/12/3,10,22
2014/12/3,11,21
2014/12/3,12,15
2014/12/3,13,13
2014/12/3,14,13
2014/12/3,15,11
2014/12/3,16,11
2014/12/3,17,14
2014/12/3,18,15
2014/12/3,19,18
2014/12/3,20,19
2014/12/3,21,18
2014/12/3,22,18
2014/12/3,23,17
2014/12/10,0,151
2014/12/10,1,168
2014/12/10,2,173
2014/12/10,3,199
2014/12/10,4,206
2014/12/10,5,216
2014/12/10,6,287
2014/12/10,7,244
2014/12/10,8,211
2014/12/10,9,204
2014/12/10,10,143
2014/12/10,11,46
2014/12/10,12,27
2014/12/10,13,28
2014/12/10,14,20
2014/12/10,15,15
2014/12/10,16,12
2014/12/10,17,13
2014/12/10,18,14
2014/12/10,19,17
2014/12/10,20,22
2014/12/10,21,22
2014/12/10,22,20
2014/12/10,23,16
2014/12/17,0,23
2014/12/17,1,17
2014/12/17,2,100
2014/12/17,3,98
2014/12/17,4,81
2014/12/17,5,55
2014/12/17,6,65
2014/12/17,7,57
2014/12/17,8,92
2014/12/17,9,97
2014/12/17,10,65
2014/12/17,11,69
2014/12/17,12,63
2014/12/17,13,71
2014/12/17,14,87
2014/12/17,15,76
2014/12/17,16,89
2014/12/17,17,97
2014/12/17,18,109
2014/12/17,19,101
2014/12/17,20,117
2014/12/17,21,143
2014/12/17,22,135
2014/12/17,23,174
2014/12/24,0,75
2014/12/24,1,115
2014/12/24,2,56
2014/12/24,3,103
2014/12/24,4,37
2014/12/24,5,84
2014/12/24,6,97
2014/12/24,7,50
2014/12/24,8,111
2014/12/24,9,121
2014/12/24,10,125
2014/12/24,11,75
2014/12/24,12,102
2014/12/24,13,73
2014/12/24,14,51
2014/12/24,15,51
2014/12/24,16,52
2014/12/24,17,84
2014/12/24,18,71
2014/12/24,19,80
2014/12/24,20,81
2014/12/24,21,82
2014/12/24,22,66
2014/12/24,23,57
2014/12/31,0,24
2014/12/31,1,21
2014/12/31,2,20
2014/12/31,3,20
2014/12/31,4,16
2014/12/31,5,11
2014/12/31,6,12
2014/12/31,7,9
2014/12/31,8,12
2014/12/31,9,14
2014/12/31,10,14
2014/12/31,11,14
2014/12/31,12,15
2014/12/31,13,18
2014/12/31,14,18
2014/12/31,15,18
2014/12/31,16,18
2014/12/31,17,18
2014/12/31,18,16
2014/12/31,19,18
2014/12/31,20,19
2014/12/31,21,19
2014/12/31,22,18
2014/12/31,23,19
